<svg width="24" height="24" viewBox="0 0 24 24" fill="none" xmlns="http://www.w3.org/2000/svg">
<g clip-path="url(#clip0_2126_21060)">
<path d="M23.2969 0H20.4375C20.0489 0 19.7344 0.314484 19.7344 0.703125V1.40625H13.9799C13.6886 0.589594 12.9155 0 12 0C11.0845 0 10.3114 0.589594 10.0201 1.40625H4.26562V0.703125C4.26562 0.314484 3.95114 0 3.5625 0H0.703125C0.314484 0 0 0.314484 0 0.703125V3.51562C0 3.90427 0.314484 4.21875 0.703125 4.21875H3.5625C3.95114 4.21875 4.26562 3.90427 4.26562 3.51562V2.80312H7.15331C4.71314 4.32755 3.10416 7.005 2.91183 10.0038C2.06817 10.28 1.45312 11.0653 1.45312 12C1.45312 13.1632 2.39934 14.1094 3.5625 14.1094C4.72566 14.1094 5.67188 13.1632 5.67188 12C5.67188 11.1028 5.10652 10.34 4.31531 10.0356C4.55522 6.69225 6.88809 3.87431 10.1331 3.07031C10.4841 3.74892 11.1847 4.21875 12 4.21875C12.8153 4.21875 13.5159 3.74892 13.8669 3.07031C17.1119 3.87427 19.4448 6.6922 19.6847 10.0356C18.8935 10.34 18.3281 11.1028 18.3281 12C18.3281 13.1632 19.2743 14.1094 20.4375 14.1094C21.6007 14.1094 22.5469 13.1632 22.5469 12C22.5469 11.0653 21.9318 10.28 21.0882 10.0038C20.8958 7.005 19.2869 4.33692 16.8467 2.8125H19.7344V3.51562C19.7344 3.90427 20.0489 4.21875 20.4375 4.21875H23.2969C23.6855 4.21875 24 3.90427 24 3.51562V0.703125C24 0.314484 23.6855 0 23.2969 0Z" fill="#7C0FD1"/>
<path d="M16.7854 23.1279C16.4177 22.0025 15.3581 21.1406 14.1112 21.1406H9.89247C8.6456 21.1406 7.58604 22.0025 7.21826 23.1279C7.07646 23.5618 7.4456 24 7.90216 24H16.1015C16.5581 24 16.9272 23.5618 16.7854 23.1279Z" fill="#7C0FD1"/>
<path d="M18.21 14.4225L12.7031 6.16211V12.8326C13.5198 13.1238 14.1094 13.897 14.1094 14.8125C14.1094 15.9756 13.1632 16.9218 12 16.9218C10.8369 16.9218 9.89063 15.9756 9.89063 14.8125C9.89063 13.897 10.4802 13.1238 11.2969 12.8326V6.16211L5.79001 14.4225C5.60391 14.7012 5.64099 15.0727 5.8779 15.3096C7.16869 16.6004 7.99379 18.2633 8.31221 20.047C8.80065 19.8489 9.33188 19.7343 9.89063 19.7343H14.1094C14.6681 19.7343 15.1994 19.8489 15.6878 20.047C16.0062 18.2631 16.8313 16.6004 18.1221 15.3096C18.359 15.0727 18.3961 14.7012 18.21 14.4225Z" fill="#7C0FD1"/>
<path d="M12 14.1094C11.6121 14.1094 11.2969 14.4246 11.2969 14.8125C11.2969 15.2004 11.6121 15.5156 12 15.5156C12.3879 15.5156 12.7031 15.2004 12.7031 14.8125C12.7031 14.4246 12.3879 14.1094 12 14.1094Z" fill="#7C0FD1"/>
</g>
<defs>
<clipPath id="clip0_2126_21060">
<rect width="24" height="24" fill="white"/>
</clipPath>
</defs>
</svg>
