<svg width="72" height="72" viewBox="0 0 72 72" fill="none" xmlns="http://www.w3.org/2000/svg">
<path d="M66 35.9999C66 52.5684 52.5685 65.9999 36 65.9999C19.4315 65.9999 6 52.5685 6 35.9999C6 19.4314 19.4315 5.99991 36 5.99991C52.5685 5.99991 66 19.4314 66 35.9999Z" fill="white"/>
<path d="M46.5762 36.075L25.5762 36.075M46.5762 36.075L36.0762 25.575M46.5762 36.075L41.6262 40.875L36.0012 46.5" stroke="url(#paint0_linear_802_5379)" stroke-width="4.5" stroke-linecap="square"/>
<defs>
<linearGradient id="paint0_linear_802_5379" x1="16.9208" y1="19.9078" x2="58.2738" y2="27.8754" gradientUnits="userSpaceOnUse">
<stop stop-color="#FFA318"/>
<stop offset="0.484375" stop-color="#F7851C"/>
<stop offset="1" stop-color="#F31F10"/>
</linearGradient>
</defs>
</svg>
