<svg viewBox="0 0 138 140" fill="none" xmlns="http://www.w3.org/2000/svg">
                                    <path
                                        d="M84.0673 139.141V84.6771H137.204V53.6686H84.0673V0H53.1369V53.6686H0V84.6771H53.1369V139.141H84.0673Z"
                                        fill="#F41E92" />
                                </svg>