<svg width="111" height="98" viewBox="0 0 111 98" fill="none" xmlns="http://www.w3.org/2000/svg">
<path d="M7.05604 2.17576C3.15125 14.3022 -6.19987 55.115 18.4623 57.1893C25.4474 57.7769 37.1696 50.4445 33.6167 41.902C28.8788 30.5105 14.4601 41.3887 12.4553 48.8902C7.17388 68.652 26.7912 87.7201 43.6721 93.5578C57.8483 98.4602 73.778 95.8178 87.6533 91.3194C94.162 89.2092 98.76 84.5718 104.914 82.1851C114.433 78.4927 103.744 88.1479 101.271 93.1333C96.2158 103.32 103.911 86.5247 105.674 83.0227C108.583 77.2446 92.7387 73.9359 86.9977 71.7094" stroke="#7C0FD1" stroke-width="3" stroke-linecap="round"/>
</svg>
