<svg width="936" height="35" viewBox="0 0 936 35" fill="none" xmlns="http://www.w3.org/2000/svg">
<path d="M935.071 0.808594H9.04981C8.51125 0.808594 7.99543 1.0258 7.61909 1.41106L1.42672 7.75037C1.06175 8.12401 0.857422 8.6256 0.857422 9.14791V13.8578C0.857422 14.9623 1.75285 15.8578 2.85742 15.8578H227.706C229.514 15.8578 230.394 18.0653 229.082 19.309L213.567 34.0217" stroke="white" stroke-miterlimit="10"/>
</svg>
