 <svg viewBox="0 0 473 275" fill="none" xmlns="http://www.w3.org/2000/svg">
                                    <path
                                        d="M111.25 272.503C112.128 248.8 108.461 222.53 134.958 214.79C159.213 207.704 192.373 210.429 216.859 214.79C293.683 228.47 408.441 257.725 456.453 174.438C473.454 144.947 477.829 102.349 458.249 73.1401C440.19 46.1986 407.887 32.1869 378.025 22.7306C327.177 6.62867 271.366 1.67799 218.296 2.01602C148.868 2.45823 14.428 11.1651 2.64832 103.194C-6.85893 177.47 90.5006 194.761 143.579 205.689"
                                        stroke="#2686EC" stroke-width="3" stroke-linecap="round" class="svg-elem-1">
                                    </path>
                                </svg>