<svg width="80" height="80" viewBox="0 0 80 80" fill="none" xmlns="http://www.w3.org/2000/svg">
<circle cx="39.2216" cy="39.222" r="29.9619" stroke="#7C0FD1" stroke-width="4" stroke-linecap="round" stroke-linejoin="round"/>
<path d="M60.0605 61.6171L71.8073 73.3334" stroke="#7C0FD1" stroke-width="4" stroke-linecap="round" stroke-linejoin="round"/>
</svg>
