<svg width="120" height="120" viewBox="0 0 120 120" fill="none" xmlns="http://www.w3.org/2000/svg">
<g style="mix-blend-mode:multiply">
<path d="M55.5446 68.74C49.4826 64.8757 49.4825 55.1246 55.5446 51.2602L91.4977 28.341C97.5132 24.5063 104.998 29.3518 104.998 37.0809V82.9187C104.998 90.6478 97.5133 95.4933 91.4978 91.6587L55.5446 68.74Z" fill="#FF4BAD"/>
</g>
<g style="mix-blend-mode:multiply">
<path d="M20.3043 70.3295C13.2319 65.7626 13.2319 54.2385 20.3043 49.6715L62.2496 22.5852C69.2677 18.0533 78 23.7798 78 32.9142V87.0862C78 96.2205 69.2678 101.947 62.2497 97.4152L20.3043 70.3295Z" fill="#A943F9"/>
</g>
</svg>
