<svg width="100" height="100" viewBox="0 0 100 100" fill="none" xmlns="http://www.w3.org/2000/svg">
<g style="mix-blend-mode:multiply">
<path d="M46.281 57.2828C41.2293 54.0625 41.2292 45.9366 46.2809 42.7163L76.2419 23.6169C81.2548 20.4213 87.4922 24.4593 87.4922 30.9002V69.0984C87.4922 75.5392 81.2549 79.5772 76.242 76.3817L46.281 57.2828Z" fill="#FF4BAD"/>
</g>
<g style="mix-blend-mode:multiply">
<path d="M16.9144 58.6083C11.0207 54.8025 11.0207 45.1991 16.9144 41.3933L51.8688 18.8214C57.7172 15.0447 64.9941 19.8168 64.9941 27.4288V72.5722C64.9941 80.1841 57.7173 84.9562 51.8689 81.1797L16.9144 58.6083Z" fill="#A943F9"/>
</g>
</svg>
