<svg width="10" height="10" viewBox="0 0 10 10" fill="none" xmlns="http://www.w3.org/2000/svg">
<path d="M8.52539 5.02539L1.52539 5.02539M8.52539 5.02539L5.02539 1.52539M8.52539 5.02539L6.8754 6.62538L5.00039 8.50039" stroke="url(#paint0_linear_5116_1683)" stroke-width="1.5" stroke-linecap="square"/>
<defs>
<linearGradient id="paint0_linear_5116_1683" x1="-1.35974" y1="-0.36367" x2="12.4246" y2="2.2922" gradientUnits="userSpaceOnUse">
<stop stop-color="#FFA318"/>
<stop offset="0.484375" stop-color="#F7851C"/>
<stop offset="1" stop-color="#F31F10"/>
</linearGradient>
</defs>
</svg>
