<svg width="697" height="542" viewBox="0 0 697 542" fill="none" xmlns="http://www.w3.org/2000/svg">
<path d="M0.867188 340.222C49.8468 340.222 41.0305 48.4754 112.051 48.4754C183.071 48.4754 197.275 216.876 275.153 216.876C353.03 216.876 350.092 48.4754 405.439 48.4754C460.786 48.4754 473.03 138.226 530.337 138.226C587.643 138.226 604.786 1.22168 637.602 1.22168C670.418 1.22168 665.52 340.222 696.867 340.222" stroke="#943DD5"/>
<path d="M112.051 48.4754C41.0305 48.4754 49.8468 339.222 0.867188 339.222V541.722H696.867V339.222C665.52 339.222 670.418 1.22168 637.602 1.22168C604.786 1.22168 587.643 138.226 530.337 138.226C473.03 138.226 460.786 48.4754 405.439 48.4754C350.092 48.4754 353.03 216.876 275.153 216.876C197.275 216.876 183.071 48.4754 112.051 48.4754Z" fill="url(#paint0_linear_4537_10299)"/>
<defs>
<linearGradient id="paint0_linear_4537_10299" x1="348.867" y1="44.2217" x2="348.867" y2="541.722" gradientUnits="userSpaceOnUse">
<stop stop-color="#7C0FD1" stop-opacity="0.24"/>
<stop offset="1" stop-color="#7C0FD1" stop-opacity="0"/>
</linearGradient>
</defs>
</svg>
