<svg width="28" height="36" viewBox="0 0 28 36" fill="none" xmlns="http://www.w3.org/2000/svg">
<path d="M18.381 7.22241C17.6528 8.12664 16.9586 9.07586 16.1852 9.9436C15.5798 10.6135 14.9207 11.2357 14.2106 11.7904C13.9972 11.9517 13.5012 11.9026 13.2188 11.7626C12.767 11.5386 12.6463 11.0288 12.878 10.5884C13.1237 10.1198 13.4739 9.69588 13.841 9.29448C16.0014 6.82989 17.9866 4.2503 18.9349 1.02301C19.2344 0.0186973 20.1013 -0.141928 20.8062 0.580121C22.7596 2.60305 24.7018 4.63447 26.6439 6.66589C27.1365 7.17725 27.7673 7.70791 27.2613 8.53251C26.8951 9.14528 26.0551 9.03805 25.1498 8.23773C24.021 7.23521 22.9286 6.18749 21.6243 4.99953C21.4412 5.59762 21.2962 5.91937 21.2414 6.24366C21.0831 7.31797 20.9727 8.40905 20.8342 9.48612C19.8624 16.6733 16.5638 22.7209 11.6867 27.9647C9.07715 30.769 6.15599 33.2079 2.68203 34.9157C2.43467 35.0321 2.20161 35.1907 1.96547 35.2985C1.41155 35.523 0.88452 35.4796 0.510316 34.9848C0.144619 34.5012 0.35836 33.8269 1.03241 33.3879C1.4761 33.0877 1.99055 32.8577 2.44275 32.5688C11.3864 27.0075 17.2239 19.3227 18.7513 8.69244C18.8113 8.25821 18.812 7.81572 18.841 7.38723C18.6858 7.34546 18.5334 7.28392 18.381 7.22241Z" fill="white"/>
</svg>
