<svg width="921" height="169" viewBox="0 0 921 169" fill="none" xmlns="http://www.w3.org/2000/svg">
<path d="M920.769 5.54959C753.402 -12.7547 653.638 27.8485 445.937 135.662C254.904 227.847 73.9877 99.0533 0.991471 34.2829" stroke="url(#paint0_linear_4904_8492)" stroke-dasharray="10 10"/>
<defs>
<linearGradient id="paint0_linear_4904_8492" x1="2.27328" y1="150.68" x2="1008.84" y2="145.453" gradientUnits="userSpaceOnUse">
<stop stop-color="#9D6FC2" stop-opacity="0.1"/>
<stop offset="1" stop-color="#9D6FC2"/>
</linearGradient>
</defs>
</svg>
