<svg width="1728" height="483" viewBox="0 0 1728 483" fill="none" xmlns="http://www.w3.org/2000/svg">
<path d="M6.52395 434.835C53.9065 397.23 93.3124 364.442 126.262 313.63C144.632 285.301 151.811 264.642 147.533 232.857C143.029 199.4 112.092 174.194 84.4546 158.96C57.4368 144.069 21.4867 133.027 -8.9705 144.2C-32.4268 152.804 -46.2291 178.038 -39.1342 202.418C-30.2084 233.091 4.07417 249.115 32.2869 256.42C135.072 283.031 248.068 249.442 341.809 207.828C390.254 186.322 437.035 159.55 477.317 124.854C500.851 104.584 526.129 79.2236 537.369 49.4908C543.803 32.4733 541.628 15.061 523.984 6.30806C504.599 -3.30793 483.386 4.20149 468.79 18.6853C405.339 81.6523 528.462 136.754 573.217 150.801C646.437 173.781 730.477 184.76 805.634 164.461C849.609 152.585 880.62 135.923 914.37 105.968C922.336 98.8974 955.179 70.9825 944.626 50.2243C933.89 29.106 884.463 38.4067 868.712 43.5314C840.181 52.8147 819.728 82.8823 838.09 111.56C863.583 151.375 930.506 161.497 972.131 167.304C1053.98 178.721 1139.57 174.569 1219.49 153.184C1248.53 145.413 1282.86 131.834 1309.71 117.245C1317.54 112.99 1341.53 97.3374 1348.77 88.2728C1364.68 68.3186 1338.74 43.778 1323.83 33.6296C1276.61 1.49531 1133.13 -22.0841 1133.49 68.836C1133.69 117.799 1179.39 156.632 1216.56 180.506C1277.18 219.448 1350.05 244.103 1420.28 258.62C1473.61 269.645 1529.4 271.204 1583.11 261.737C1614.93 256.128 1659.76 245.539 1677.36 214.429C1686.3 198.618 1681.37 174.043 1662.14 168.404C1636.48 160.879 1601.49 187.823 1586.59 205.26C1571.79 222.585 1562.54 244.587 1560.92 267.422C1559.26 290.763 1566.99 349.493 1577.97 368.64C1609.91 424.341 1664.83 450.678 1724.67 468.758C1740.73 473.612 1755.45 477.766 1769.07 481.337" stroke="white" stroke-width="2" stroke-linecap="square"/>
</svg>
