<svg width="1728" height="773" viewBox="0 0 1728 773" fill="none" xmlns="http://www.w3.org/2000/svg">
<mask id="mask0_5573_8986" style="mask-type:alpha" maskUnits="userSpaceOnUse" x="0" y="0" width="1728" height="773">
<rect width="1728" height="773" fill="#D9D9D9"/>
</mask>
<g mask="url(#mask0_5573_8986)">
<path d="M5.52395 606.835C52.9065 569.23 92.3124 536.442 125.262 485.63C143.632 457.301 150.811 436.642 146.533 404.857C142.029 371.4 111.092 346.194 83.4546 330.96C56.4368 316.069 20.4867 305.027 -9.9705 316.2C-33.4268 324.804 -47.2291 350.038 -40.1342 374.418C-31.2084 405.091 3.07417 421.115 31.2869 428.42C134.072 455.031 247.068 421.442 340.809 379.828C389.254 358.322 436.035 331.55 476.317 296.854C499.851 276.584 525.129 251.224 536.369 221.491C542.803 204.473 540.628 187.061 522.984 178.308C503.599 168.692 482.386 176.201 467.79 190.685C404.339 253.652 527.462 308.754 572.217 322.801C645.437 345.781 729.477 356.76 804.634 336.461C848.609 324.585 879.62 307.923 913.37 277.968C921.336 270.897 954.179 242.982 943.626 222.224C932.89 201.106 883.463 210.407 867.712 215.531C839.181 224.815 818.728 254.882 837.09 283.56C862.583 323.375 929.506 333.497 971.131 339.304C1052.98 350.721 1138.57 346.569 1218.49 325.184C1247.53 317.413 1281.86 303.834 1308.71 289.245C1316.54 284.99 1340.53 269.337 1347.77 260.273C1363.68 240.319 1337.74 215.778 1322.83 205.63C1275.61 173.495 1132.13 149.916 1132.49 240.836C1132.69 289.799 1178.39 328.632 1215.56 352.506C1276.18 391.448 1349.05 416.103 1419.28 430.62C1472.61 441.645 1528.4 443.204 1582.11 433.737C1613.93 428.128 1658.76 417.539 1676.36 386.429C1685.3 370.618 1680.37 346.043 1661.14 340.404C1635.48 332.879 1600.49 359.823 1585.59 377.26C1570.79 394.585 1561.54 416.587 1559.92 439.422C1558.26 462.763 1565.99 521.493 1576.97 540.64C1608.91 596.341 1663.83 622.678 1723.67 640.758C1740.32 645.791 1755.53 650.071 1769.57 653.73" stroke="#973ADF" stroke-width="20" stroke-linecap="round"/>
<path d="M6.52395 606.835C53.9065 569.23 93.3124 536.442 126.262 485.63C144.632 457.301 151.811 436.642 147.533 404.857C143.029 371.4 112.092 346.194 84.4546 330.96C57.4368 316.069 21.4867 305.027 -8.9705 316.2C-32.4268 324.804 -46.2291 350.038 -39.1342 374.418C-30.2084 405.091 4.07417 421.115 32.2869 428.42C135.072 455.031 248.068 421.442 341.809 379.828C390.254 358.322 437.035 331.55 477.317 296.854C500.851 276.584 526.129 251.224 537.369 221.491C543.803 204.473 541.628 187.061 523.984 178.308C504.599 168.692 483.386 176.201 468.79 190.685C405.339 253.652 528.462 308.754 573.217 322.801C646.437 345.781 730.477 356.76 805.634 336.461C849.609 324.585 880.62 307.923 914.37 277.968C922.336 270.897 955.179 242.982 944.626 222.224C933.89 201.106 884.463 210.407 868.712 215.531C840.181 224.815 819.728 254.882 838.09 283.56C863.583 323.375 930.506 333.497 972.131 339.304C1053.98 350.721 1139.57 346.569 1219.49 325.184C1248.53 317.413 1282.86 303.834 1309.71 289.245C1317.54 284.99 1341.53 269.337 1348.77 260.273C1364.68 240.319 1338.74 215.778 1323.83 205.63C1276.61 173.495 1133.13 149.916 1133.49 240.836C1133.69 289.799 1179.39 328.632 1216.56 352.506C1277.18 391.448 1350.05 416.103 1420.28 430.62C1473.61 441.645 1529.4 443.204 1583.11 433.737C1614.93 428.128 1659.76 417.539 1677.36 386.429C1686.3 370.618 1681.37 346.043 1662.14 340.404C1636.48 332.879 1601.49 359.823 1586.59 377.26C1571.79 394.585 1562.54 416.587 1560.92 439.422C1559.26 462.763 1566.99 521.493 1577.97 540.64C1609.91 596.341 1664.83 622.678 1724.67 640.758C1740.73 645.612 1755.45 649.766 1769.07 653.337" stroke="white" stroke-width="2" stroke-linecap="square"/>
</g>
</svg>
