<svg width="1614" height="894" viewBox="0 0 1614 894" fill="none" xmlns="http://www.w3.org/2000/svg">
<path d="M132.745 458.905C153.303 467.526 173.195 478.236 194.474 485.007C201.479 487.236 209.293 486.965 216.52 489.063C229.092 492.714 239.288 495.413 252.499 495.413C276.436 495.413 288.116 485.553 304.527 469.663C313.48 460.995 323.148 454.522 331.07 444.619C341.707 431.323 348.07 413.963 353.292 397.97C359.068 380.283 363.262 359.494 372.781 343.384C379.974 331.212 390.056 321.596 398.001 309.963C403.654 301.686 409.18 291.482 414.051 282.714C417.853 275.871 422.984 270.21 427.19 263.667C440.886 242.361 446.782 219.869 454.968 195.942C464.121 169.186 464.332 134.172 481.246 110.492C487.117 102.273 490.934 92.9907 499.059 86.5944C512.415 76.0803 535.763 79.7105 551.793 75.1305C573.836 68.8326 585.438 51.8678 597.737 33.4198C601.714 27.4539 601.194 18.51 606.114 13.2258C613.015 5.81338 620.656 4.81866 630.453 3.34921C643.174 1.44107 650.897 -0.237591 662.199 6.612C672.096 12.6103 681.713 20.8798 692.269 25.5714C700.206 29.0987 708.275 38.2698 717.225 38.2698C732.187 38.2698 747.149 38.2698 762.111 38.2698C781.889 38.2698 802.656 36.523 822.34 38.6226C845.417 41.0841 865.629 33.5079 888.213 33.5079C909.623 33.5079 939.757 27.7185 956.908 44.09C971.311 57.8384 998.571 68.1403 1018.46 68.4286C1031.75 68.6212 1041.74 74.1812 1054 77.9524C1066.84 81.9033 1077.26 94.0531 1089.18 100.175C1092.98 102.125 1104.57 105.541 1105.67 110.492C1108.43 122.879 1131.34 128.203 1141.56 131.921C1151.08 135.382 1156.8 142.755 1167.31 143.032C1201.55 143.933 1236.25 153.354 1270.49 156.524C1294.34 158.733 1318.43 157.453 1342.27 160.139C1350.51 161.068 1358.11 160.354 1366.17 162.961C1376.31 166.242 1386.67 174.996 1394.56 182.097C1405.77 192.182 1410.03 209.308 1416.52 222.397C1423.06 235.583 1426.39 239.332 1440.68 241.797C1450.6 243.508 1462.27 243.762 1470.14 250.527C1475.74 255.353 1480.28 260.783 1487.07 264.019C1492.12 266.429 1496.91 268.554 1501 272.485C1509.12 280.296 1516.88 282.998 1519.34 295.06C1521.51 305.688 1524.12 308.798 1534.42 311.374C1546.07 314.285 1556.99 318.886 1568.9 321.162C1578.24 322.947 1585.85 330.556 1595 333.508C1602.89 336.053 1607.93 339.319 1608.94 347.882C1609.51 352.737 1611.47 357.606 1611.76 362.432C1612.21 369.92 1605.52 376.766 1601.88 382.714C1585.86 408.932 1569.7 434.783 1554.97 461.727C1546.84 476.59 1542.23 492.059 1540.77 508.905C1539.83 519.773 1534.1 529.645 1527.63 538.27C1513.78 556.733 1499.16 576.507 1478.78 587.829C1472.39 591.38 1465.73 597.35 1460.52 602.556C1458.22 604.859 1456.26 606.949 1453.38 608.464C1444.32 613.231 1442.84 621.075 1439.09 630.333C1433.7 643.657 1431.28 659.704 1429.66 673.984C1427.72 691.076 1424.04 707.838 1422.43 724.954C1421.2 737.979 1420.47 753.177 1416.17 765.607C1407.92 789.413 1390.13 802.867 1371.9 818.87C1359.43 829.817 1348.78 843.398 1337.68 855.73C1325.87 868.857 1310.49 884.803 1292.71 889.504C1278.41 893.284 1263.42 891.524 1248.97 889.857C1231.22 887.808 1213.89 887.813 1196.06 887.476C1156.4 886.728 1116.47 875.374 1078.95 862.961C1039.81 850.013 1006.45 825.865 968.46 810.668C948.972 802.874 930.229 791.437 909.994 785.889C894.378 781.607 877.927 781.258 862.199 777.247C839.693 771.508 818.45 765.321 797.384 755.642C778.433 746.935 756.829 739.81 736.626 734.39C695.333 723.311 652.633 721.339 610.347 718.87C581.064 717.16 551.918 714.225 522.516 712.873C504.027 712.023 485.848 709.698 467.313 709.698C451.666 709.698 433.666 713.56 418.46 710.051C406.756 707.35 396.036 702.127 384.245 699.381C367.191 695.41 349.728 694.167 333.01 689.152C291.55 676.714 248.957 668.134 205.938 662.079C191.848 660.096 177.944 657.264 164.492 652.556C154.798 649.163 140.752 646.339 133.451 638.534C128.789 633.551 125.943 627.163 121.546 621.956C116.705 616.223 110.573 613.254 104.174 609.698C98.3799 606.479 95.1043 601.009 89.8002 597.265C85.6188 594.313 80.6032 592.429 76.1317 589.945C72.3518 587.845 67.5186 586.083 64.4915 582.891C59.0567 577.159 58.2879 568.557 53.204 562.52C48.8417 557.34 43.003 558.045 38.2129 554.319C32.5976 549.952 33.007 540.578 29.3945 534.831C26.7772 530.667 22.2443 529.555 17.9307 527.952C10.4412 525.171 12.3138 517.11 12.1106 510.404C11.8905 503.142 11.9557 497.726 4.4386 495.413C-1.01263 493.735 3.01706 489.171 4.87952 485.713C14.2093 468.386 25.4824 459.377 42.9748 449.381C49.5522 445.622 60.0987 445.021 67.6661 443.384C81.3563 440.424 98.7206 442.245 110.523 448.146C114.352 450.061 119.829 455.73 124.015 455.73C128.522 455.73 130.852 463.667 135.92 463.667" stroke="white" stroke-width="3" stroke-linecap="round"/>
</svg>
