<svg width="93" height="163" viewBox="0 0 93 163" fill="none" xmlns="http://www.w3.org/2000/svg">
<path d="M78.4461 146.343C82.7371 142.331 86.9749 138.519 91.7002 134.085C93.2398 137.632 92.3148 140.725 90.4708 142.813C84.9386 149.078 79.2055 155.289 72.9759 160.933C69.4267 164.176 65.5673 162.48 64.5478 157.78C62.7393 149.952 61.386 142.032 59.8316 134.058C59.7371 133.6 59.5687 133.015 59.7489 132.741C60.2691 131.587 61.064 130.616 61.7851 129.518C62.6834 130.193 64.0901 130.575 64.4063 131.417C65.5765 134.324 66.4187 137.25 67.388 140.102C67.9465 141.657 68.304 143.156 70.1214 144.837C70.8337 142.549 71.673 140.188 72.3852 137.9C85.0458 89.9843 65.0251 40.6343 22.6985 14.5701C17.2226 11.2483 11.4601 8.60388 5.80392 5.55678C3.82693 4.48023 1.977 3.33032 0 2.25377C0.032514 1.72315 0.265975 1.24714 0.298489 0.716528C1.66378 0.440115 3.26254 -0.312314 4.54212 0.143209C8.83597 1.41764 13.1298 2.69207 17.2641 4.57048C58.459 23.0987 84.8363 66.7312 82.705 113.515C82.2793 122.462 80.2667 131.302 78.9102 140.104C78.6324 141.971 78.0797 143.655 77.601 145.466C77.6216 145.796 77.9704 146.106 78.4461 146.343Z" fill="#F5851E"/>
</svg>
