<svg width="120" height="79" viewBox="0 0 120 79" fill="none" xmlns="http://www.w3.org/2000/svg">
<path d="M6.89188 63.619C5.96674 59.2318 4.98669 54.9938 3.97452 50.1531C1.45911 51.6962 0.68295 54.0347 0.921248 56.1474C1.63616 62.4858 2.50058 68.878 3.92334 75.1335C4.72174 78.7148 7.87669 79.3446 10.572 76.8529C15.1297 72.7518 19.4434 68.3938 23.9065 64.0897C24.1658 63.8453 24.5273 63.5533 24.5349 63.3026C24.7148 62.354 24.6429 61.3991 24.6733 60.3966C23.8159 60.4255 22.7694 60.0485 22.2034 60.4358C20.199 61.7407 18.3915 63.201 16.5366 64.5597C15.507 65.2867 14.6268 66.0676 12.755 66.3223C13.3116 64.5803 13.8208 62.7368 14.3774 60.9948C27.4431 25.5008 61.565 3.41933 99.4343 5.65972C104.312 5.98094 109.071 6.85106 113.941 7.42291C115.648 7.6156 117.308 7.7068 119.015 7.89949C119.227 7.55358 119.29 7.15382 119.502 6.80791C118.769 6.03735 118.099 4.86702 117.1 4.5915C113.858 3.50808 110.616 2.42466 107.209 1.78864C73.3472 -4.66679 37.7552 11.0576 18.6033 41.2344C14.952 47.0133 12.3396 53.4199 9.33369 59.5157C8.69009 60.8041 8.29822 62.0987 7.80414 63.4409C7.64704 63.6376 7.29311 63.6791 6.89188 63.619Z" fill="white"/>
</svg>
