<svg width="24" height="25" viewBox="0 0 24 25" fill="none" xmlns="http://www.w3.org/2000/svg">
<path d="M12.5858 15.6716C12.9094 15.6716 13.1717 15.4093 13.1717 15.0857V12.7421C13.1717 12.4186 12.9095 12.1562 12.5858 12.1562H11.414C11.0905 12.1562 10.8281 12.4185 10.8281 12.7421V15.0857C10.8281 15.4093 11.0905 15.6716 11.414 15.6716H12.5858Z" fill="#F41E92"/>
<path d="M20.241 5.71078H16.1006C16.1006 5.59278 16.1006 5.00688 16.1006 5.12488C16.1006 4.15565 15.3122 3.36719 14.3429 3.36719C14.2158 3.36719 9.48173 3.36719 9.65574 3.36719C8.68651 3.36719 7.89805 4.15561 7.89805 5.12488C7.89805 5.24288 7.89805 5.82878 7.89805 5.71078H3.7577C2.78846 5.71078 2 6.49921 2 7.46848C2 8.61594 2.14062 9.62084 2.41982 10.4772C2.69902 11.3336 3.11684 12.0415 3.6713 12.5951C4.60432 13.5269 5.79276 13.9134 7.1272 13.9134H9.65574C9.65574 13.7954 9.65574 12.6236 9.65574 12.7416C9.65574 11.7723 10.4442 10.9839 11.4134 10.9839C11.5314 10.9839 12.7032 10.9839 12.5852 10.9839C13.5545 10.9839 14.3429 11.7723 14.3429 12.7416C14.3429 12.8596 14.3429 14.0314 14.3429 13.9134H15.6448C16.8111 13.8649 18.7189 14.2196 20.3268 12.6191C20.8815 12.067 21.2995 11.3578 21.5788 10.4974C21.8581 9.63697 21.9987 8.62539 21.9987 7.46848C21.9987 6.49925 21.2103 5.71078 20.241 5.71078ZM9.06985 5.12488C9.06985 4.80162 9.33245 4.53899 9.65574 4.53899H14.3429C14.6662 4.53899 14.9288 4.80158 14.9288 5.12488C14.9288 5.24288 14.9288 5.82878 14.9288 5.71078H9.06985C9.06985 5.59278 9.06985 5.00688 9.06985 5.12488Z" fill="#F41E92"/>
<path d="M15.6608 15.0848H14.3429C14.3429 16.054 13.5545 16.8425 12.5852 16.8425C12.4672 16.8425 11.2954 16.8425 11.4134 16.8425C10.4442 16.8425 9.65574 16.0541 9.65574 15.0848C9.52189 15.0848 6.98764 15.0848 7.13232 15.0848C5.46118 15.0848 3.99335 14.572 2.84334 13.4238C2.51848 13.0995 2.24108 12.7343 2 12.3438V20.3579C2 20.6817 2.26205 20.9438 2.5859 20.9438H21.4128C21.7366 20.9438 21.9987 20.6817 21.9987 20.3579V12.3678C21.7544 12.7643 21.4758 13.1287 21.1536 13.4495C19.3048 15.2886 17.336 15.0056 15.6608 15.0848Z" fill="#F41E92"/>
</svg>
