<svg width="24" height="25" viewBox="0 0 24 25" fill="none" xmlns="http://www.w3.org/2000/svg">
<path d="M12 2.03125C9.91142 2.03125 7.90838 2.86094 6.43153 4.33778C4.95468 5.81463 4.125 7.81767 4.125 9.90625C4.125 16.2812 12 22.2812 12 22.2812C12 22.2812 19.875 16.2812 19.875 9.90625C19.875 7.81767 19.0453 5.81463 17.5685 4.33778C16.0916 2.86094 14.0886 2.03125 12 2.03125ZM12 13.6562C11.2583 13.6562 10.5333 13.4363 9.91661 13.0243C9.29993 12.6122 8.81928 12.0265 8.53545 11.3413C8.25162 10.6561 8.17736 9.90209 8.32205 9.17466C8.46675 8.44723 8.8239 7.77905 9.34835 7.2546C9.8728 6.73015 10.541 6.373 11.2684 6.2283C11.9958 6.08361 12.7498 6.15787 13.4351 6.4417C14.1203 6.72553 14.706 7.20618 15.118 7.82286C15.5301 8.43955 15.75 9.16457 15.75 9.90625C15.75 10.9008 15.3549 11.8546 14.6517 12.5579C13.9484 13.2612 12.9946 13.6562 12 13.6562Z" fill="#F41E92"/>
</svg>
