<svg width="295" height="22" viewBox="0 0 295 22" fill="none" xmlns="http://www.w3.org/2000/svg">
<path d="M291.923 8.94417C293.299 9.05909 294.507 8.03684 294.622 6.66092C294.737 5.285 293.715 4.07644 292.339 3.96152L291.923 8.94417ZM1.46086 21.7672C47.107 13.2337 169.24 -1.30233 291.923 8.94417L292.339 3.96152C169.113 -6.3304 46.52 8.25685 0.542038 16.8523L1.46086 21.7672Z" fill="#2686EC"/>
</svg>
