<svg width="184" height="103" viewBox="0 0 184 103" fill="none" xmlns="http://www.w3.org/2000/svg">
<path d="M183.49 90.0222C183.586 89.1993 182.996 88.4546 182.173 88.359C181.35 88.2633 180.606 88.8529 180.51 89.6757L183.49 90.0222ZM168.313 97.1697L168.625 98.637L168.313 97.1697ZM108.6 99.6777L108.783 98.1888L108.6 99.6777ZM53.9229 71.4115L55.3979 71.1392L53.9229 71.4115ZM77.3257 29.9273L77.8097 31.347L77.3257 29.9273ZM100.516 38.2648L99.0209 38.3889L100.516 38.2648ZM62.2911 70.8692L62.1042 69.3809L62.2911 70.8692ZM4.98974 49.3137L6.30371 48.5902L4.98974 49.3137ZM25.2115 1.96242C25.1908 1.13426 24.5026 0.479718 23.6744 0.500471L10.1786 0.838659C9.35047 0.859412 8.69593 1.5476 8.71669 2.37576C8.73744 3.20393 9.42562 3.85847 10.2538 3.83772L22.25 3.53711L22.5506 15.5333C22.5714 16.3615 23.2596 17.016 24.0877 16.9953C24.9159 16.9745 25.5704 16.2864 25.5497 15.4582L25.2115 1.96242ZM180.51 89.6757C180.272 91.7231 178.76 92.9893 176.201 93.8999C173.584 94.8313 170.618 95.1467 168.001 95.7024L168.625 98.637C170.812 98.1724 174.351 97.7426 177.207 96.7263C180.121 95.6891 183.05 93.8051 183.49 90.0222L180.51 89.6757ZM168.001 95.7024C149.026 99.7329 128.025 100.544 108.783 98.1888L108.418 101.167C127.979 103.561 149.314 102.739 168.625 98.637L168.001 95.7024ZM108.783 98.1888C100.103 97.1265 87.5438 95.2412 76.7079 91.0933C65.7919 86.9147 57.1539 80.6501 55.3979 71.1392L52.4478 71.6839C54.5062 82.8331 64.5132 89.6375 75.6354 93.895C86.8377 98.1832 99.7099 100.101 108.418 101.167L108.783 98.1888ZM55.3979 71.1392C52.3273 54.5078 60.9375 37.0993 77.8097 31.347L76.8416 28.5075C58.3978 34.7956 49.1395 53.7649 52.4478 71.6839L55.3979 71.1392ZM77.8097 31.347C82.5068 29.7457 87.7412 28.8488 91.8211 29.7194C93.8299 30.148 95.4888 30.9892 96.7016 32.3186C97.9086 33.6417 98.787 35.5723 99.0209 38.3889L102.011 38.1407C101.733 34.8008 100.656 32.2022 98.9179 30.2968C97.1855 28.3976 94.9092 27.3108 92.4472 26.7854C87.5856 25.748 81.7362 26.8388 76.8416 28.5075L77.8097 31.347ZM99.0209 38.3889C99.7598 47.2889 94.8575 54.46 87.4572 59.7657C80.0484 65.0776 70.3404 68.3466 62.1042 69.3809L62.478 72.3575C71.119 71.2724 81.3219 67.8559 89.2053 62.2038C97.0973 56.5455 102.869 48.4741 102.011 38.1407L99.0209 38.3889ZM62.1042 69.3809C52.5707 70.5782 40.9715 69.7545 30.552 66.4047C20.1174 63.0499 11.061 57.2297 6.30371 48.5902L3.67577 50.0372C8.93844 59.5946 18.7928 65.7753 29.6338 69.2607C40.4901 72.751 52.5317 73.6066 62.478 72.3575L62.1042 69.3809ZM6.30371 48.5902C1.68309 40.1988 3.25008 32.0186 7.55985 24.2445C11.9049 16.4067 18.908 9.22744 24.7989 3.03376L22.6251 0.966243C16.8209 7.06882 9.50657 14.5454 4.93606 22.7899C0.330314 31.098 -1.61628 40.4265 3.67577 50.0372L6.30371 48.5902Z" fill="#7C0FD1"/>
</svg>
