<svg width="34" height="34" viewBox="0 0 34 34" fill="none" xmlns="http://www.w3.org/2000/svg">
<path d="M16.9987 0.333008C7.81536 0.333008 0.332031 7.81634 0.332031 16.9997C0.332031 26.183 7.81536 33.6663 16.9987 33.6663C26.182 33.6663 33.6654 26.183 33.6654 16.9997C33.6654 7.81634 26.182 0.333008 16.9987 0.333008ZM24.9654 13.1663L15.5154 22.6163C15.282 22.8497 14.9654 22.983 14.632 22.983C14.2987 22.983 13.982 22.8497 13.7487 22.6163L9.03203 17.8997C8.5487 17.4163 8.5487 16.6163 9.03203 16.133C9.51536 15.6497 10.3154 15.6497 10.7987 16.133L14.632 19.9663L23.1987 11.3997C23.682 10.9163 24.482 10.9163 24.9654 11.3997C25.4487 11.883 25.4487 12.6663 24.9654 13.1663Z" fill="#2686EC"/>
</svg>
