<svg width="16" height="16" viewBox="0 0 16 16" fill="none" xmlns="http://www.w3.org/2000/svg">
<g clip-path="url(#clip0_1098_12570)">
<path d="M8.66377 1.36733V0.666667C8.66377 0.489856 8.59353 0.320286 8.46851 0.195262C8.34349 0.0702379 8.17392 0 7.99711 0C7.8203 0 7.65073 0.0702379 7.5257 0.195262C7.40068 0.320286 7.33044 0.489856 7.33044 0.666667V1.36733C5.98828 1.48766 4.70539 1.97614 3.6231 2.77895C2.54081 3.58176 1.70112 4.66774 1.19656 5.91725C0.692001 7.16676 0.542145 8.53131 0.763502 9.86054C0.98486 11.1898 1.56884 12.4321 2.45111 13.4507C2.10269 13.623 1.81153 13.8925 1.6127 14.2265C1.41387 14.5605 1.31585 14.9449 1.33044 15.3333C1.33044 15.5101 1.40068 15.6797 1.5257 15.8047C1.65073 15.9298 1.8203 16 1.99711 16C2.17392 16 2.34349 15.9298 2.46851 15.8047C2.59354 15.6797 2.66377 15.5101 2.66377 15.3333C2.65823 15.1278 2.732 14.9281 2.86978 14.7756C3.00757 14.623 3.19878 14.5293 3.40377 14.514C3.44963 14.5053 3.49436 14.4914 3.53711 14.4727C4.81413 15.4631 6.38433 16.0007 8.00044 16.0007C9.61655 16.0007 11.1868 15.4631 12.4638 14.4727C12.5028 14.4906 12.5434 14.5049 12.5851 14.5153C12.7908 14.5294 12.9832 14.6223 13.122 14.7747C13.2609 14.9271 13.3356 15.1272 13.3304 15.3333C13.3304 15.5101 13.4007 15.6797 13.5257 15.8047C13.6507 15.9298 13.8203 16 13.9971 16C14.1739 16 14.3435 15.9298 14.4685 15.8047C14.5935 15.6797 14.6638 15.5101 14.6638 15.3333C14.6784 14.9449 14.5803 14.5605 14.3815 14.2265C14.1827 13.8925 13.8915 13.623 13.5431 13.4507C14.4254 12.4321 15.0094 11.1898 15.2307 9.86054C15.4521 8.53131 15.3022 7.16676 14.7976 5.91725C14.2931 4.66774 13.4534 3.58176 12.3711 2.77895C11.2888 1.97614 10.0059 1.48766 8.66377 1.36733ZM1.99711 8.66667C1.99711 7.47998 2.349 6.31994 3.00829 5.33325C3.66758 4.34655 4.60465 3.57752 5.70101 3.12339C6.79736 2.66926 8.00376 2.55044 9.16765 2.78196C10.3315 3.01347 11.4006 3.58491 12.2397 4.42403C13.0789 5.26314 13.6503 6.33224 13.8818 7.49613C14.1133 8.66001 13.9945 9.86641 13.5404 10.9628C13.0863 12.0591 12.3172 12.9962 11.3305 13.6555C10.3438 14.3148 9.18379 14.6667 7.99711 14.6667C6.4064 14.6647 4.88141 14.032 3.75661 12.9072C2.63181 11.7824 1.99905 10.2574 1.99711 8.66667Z" fill="#5F5F5F"/>
<path d="M12.8073 6.6885e-05C12.6305 6.6885e-05 12.4609 0.0703048 12.3359 0.195329C12.2109 0.320353 12.1406 0.489923 12.1406 0.666734C12.1406 0.843545 12.2109 1.01311 12.3359 1.13814C12.4609 1.26316 12.6305 1.3334 12.8073 1.3334C13.0398 1.31573 13.2734 1.34532 13.4941 1.42039C13.7149 1.49546 13.9181 1.61445 14.0916 1.77019C14.2651 1.92593 14.4052 2.11519 14.5036 2.32656C14.602 2.53794 14.6565 2.76704 14.664 3.00007C14.664 3.17688 14.7342 3.34645 14.8592 3.47147C14.9842 3.5965 15.1538 3.66673 15.3306 3.66673C15.5074 3.66673 15.677 3.5965 15.802 3.47147C15.9271 3.34645 15.9973 3.17688 15.9973 3.00007C15.9888 2.5924 15.899 2.19052 15.7333 1.81795C15.5676 1.44538 15.3292 1.1096 15.0322 0.830257C14.7352 0.550909 14.3854 0.333605 14.0034 0.191056C13.6213 0.048508 13.2147 -0.0164214 12.8073 6.6885e-05Z" fill="#5F5F5F"/>
<path d="M1.33333 3.00007C1.34076 2.76704 1.39531 2.53794 1.49368 2.32656C1.59205 2.11519 1.73221 1.92593 1.9057 1.77019C2.0792 1.61445 2.28243 1.49546 2.50316 1.42039C2.72389 1.34532 2.95753 1.31573 3.19 1.3334C3.36681 1.3334 3.53638 1.26316 3.6614 1.13814C3.78643 1.01311 3.85667 0.843545 3.85667 0.666734C3.85667 0.489923 3.78643 0.320353 3.6614 0.195329C3.53638 0.0703048 3.36681 6.6885e-05 3.19 6.6885e-05C2.78257 -0.0164214 2.37595 0.048508 1.99392 0.191056C1.61189 0.333605 1.26212 0.550909 0.965084 0.830257C0.668045 1.1096 0.429698 1.44538 0.263987 1.81795C0.0982768 2.19052 0.00853083 2.5924 0 3.00007C0 3.17688 0.0702379 3.34645 0.195262 3.47147C0.320286 3.5965 0.489856 3.66673 0.666667 3.66673C0.843478 3.66673 1.01305 3.5965 1.13807 3.47147C1.2631 3.34645 1.33333 3.17688 1.33333 3.00007Z" fill="#5F5F5F"/>
<path d="M8.66927 7.724V4.66667C8.66927 4.48986 8.59903 4.32029 8.47401 4.19526C8.34898 4.07024 8.17942 4 8.0026 4C7.82579 4 7.65622 4.07024 7.5312 4.19526C7.40618 4.32029 7.33594 4.48986 7.33594 4.66667V8C7.33598 8.1768 7.40624 8.34634 7.53127 8.47133L9.53127 10.4713C9.65701 10.5928 9.82541 10.66 10.0002 10.6584C10.175 10.6569 10.3422 10.5868 10.4658 10.4632C10.5894 10.3396 10.6595 10.1724 10.6611 9.9976C10.6626 9.8228 10.5954 9.6544 10.4739 9.52867L8.66927 7.724Z" fill="#5F5F5F"/>
</g>
<defs>
<clipPath id="clip0_1098_12570">
<rect width="16" height="16" fill="white"/>
</clipPath>
</defs>
</svg>
