<svg width="32" height="33" viewBox="0 0 32 33" fill="none" xmlns="http://www.w3.org/2000/svg">
<g clip-path="url(#clip0_566_15611)">
<path d="M0 12.081C0 8.02724 0 6.00038 0.788905 4.45207C1.48285 3.09013 2.59013 1.98285 3.95207 1.28891C5.50038 0.5 7.52724 0.5 11.581 0.5H20.419C24.4728 0.5 26.4996 0.5 28.0479 1.28891C29.4099 1.98285 30.5172 3.09013 31.2111 4.45207C32 6.00038 32 8.02724 32 12.081V20.919C32 24.9728 32 26.9996 31.2111 28.5479C30.5172 29.9099 29.4099 31.0172 28.0479 31.7111C26.4996 32.5 24.4728 32.5 20.419 32.5H11.581C7.52724 32.5 5.50038 32.5 3.95207 31.7111C2.59013 31.0172 1.48285 29.9099 0.788905 28.5479C0 26.9996 0 24.9728 0 20.919V12.081Z" fill="#001E36"/>
<path d="M6.85938 23.9469V9.87506C6.85938 9.77933 6.89938 9.72463 6.99271 9.72463C8.37057 9.72463 9.7478 9.64258 11.126 9.64258C13.3624 9.64258 15.7839 10.4073 16.6327 12.7469C16.8327 13.3212 16.9394 13.9092 16.9394 14.5246C16.9394 15.7007 16.6727 16.6716 16.1394 17.4375C14.6496 19.5767 12.0674 19.5434 9.75271 19.5434V23.9332C9.77081 24.0631 9.66006 24.1246 9.55271 24.1246H7.01938C6.91271 24.1246 6.85938 24.0699 6.85938 23.9469ZM9.76604 12.3639V16.9588C10.6838 17.0261 11.6442 17.0334 12.526 16.74C13.4996 16.4592 14.0327 15.6165 14.0327 14.6067C14.0598 13.7462 13.5909 12.9206 12.7927 12.6101C11.9215 12.2479 10.7065 12.2262 9.76604 12.3639Z" fill="#31A8FF"/>
<path d="M25.2556 16.051C24.8521 15.8384 24.4225 15.6829 23.9783 15.5886C23.4075 15.4543 21.1563 14.984 21.1554 16.1611C21.1754 16.8183 22.2186 17.1402 22.6795 17.328C24.2976 17.8835 26.1287 18.8765 26.0927 20.8727C26.1422 23.3578 23.7345 24.3512 21.6706 24.3514C20.5961 24.3626 19.4768 24.1961 18.4935 23.735C18.3997 23.6853 18.3392 23.579 18.3433 23.4707V21.0929C18.3327 20.9976 18.435 20.9142 18.515 20.9828C19.4784 21.5655 20.6204 21.8484 21.735 21.8635C22.227 21.8635 23.2021 21.8158 23.1948 21.0929C23.1948 20.3992 22.0282 20.0802 21.5632 19.904C20.8892 19.6634 20.2501 19.3301 19.6634 18.9132C18.8436 18.3284 18.3293 17.3908 18.3433 16.3592C18.3385 14.0194 20.5548 12.9691 22.5508 12.9686C23.4838 12.9609 24.4858 13.03 25.3544 13.4089C25.4794 13.4457 25.5052 13.5773 25.5047 13.6952V15.9189C25.5126 16.0569 25.3593 16.1039 25.2556 16.051Z" fill="#31A8FF"/>
</g>
<defs>
<clipPath id="clip0_566_15611">
<rect width="32" height="32" fill="white" transform="translate(0 0.5)"/>
</clipPath>
</defs>
</svg>
