<svg width="43" height="78" viewBox="0 0 43 78" fill="none" xmlns="http://www.w3.org/2000/svg">
<path d="M32.9426 1.04898C32.2017 0.6785 31.3006 0.978837 30.9302 1.7198C30.5597 2.46077 30.86 3.36178 31.601 3.73227L32.9426 1.04898ZM36.4195 41.9208L35.1373 41.1424L36.4195 41.9208ZM0.35978 72.0552C0.126026 72.85 0.580814 73.6838 1.37558 73.9175L14.327 77.7268C15.1218 77.9605 15.9556 77.5057 16.1893 76.711C16.4231 75.9162 15.9683 75.0824 15.1735 74.8487L3.66113 71.4627L7.04712 59.9503C7.28088 59.1555 6.82609 58.3217 6.03132 58.088C5.23656 57.8542 4.40278 58.309 4.16903 59.1038L0.35978 72.0552ZM31.601 3.73227C37.0049 6.43421 39.4541 13.1427 39.6748 20.8969C39.8935 28.5811 37.8839 36.6187 35.1373 41.1424L37.7017 42.6993C40.8121 37.5763 42.9048 28.9368 42.6736 20.8116C42.4443 12.7565 39.8911 4.52325 32.9426 1.04898L31.601 3.73227ZM35.1373 41.1424C27.3574 53.9564 14.2324 63.9879 1.08055 71.1616L2.51711 73.7953C15.8979 66.4967 29.5354 56.1496 37.7017 42.6993L35.1373 41.1424Z" fill="#FFA51F"/>
</svg>
