<svg width="18" height="19" viewBox="0 0 18 19" fill="none" xmlns="http://www.w3.org/2000/svg">
<g clip-path="url(#clip0_998_12696)">
<path fill-rule="evenodd" clip-rule="evenodd" d="M6.02344 0.5C4.36744 0.5 3.02344 1.844 3.02344 3.5C3.02344 5.156 4.36744 6.5 6.02344 6.5C4.36744 6.5 3.02344 7.844 3.02344 9.5C3.02344 11.156 4.36744 12.5 6.02344 12.5C4.36744 12.5 3.02344 13.844 3.02344 15.5C3.02344 17.156 4.36744 18.5 6.02344 18.5C7.67944 18.5 9.02344 17.156 9.02344 15.5L9.02344 9.5C9.02344 11.156 10.3674 12.5 12.0234 12.5C13.6794 12.5 15.0234 11.156 15.0234 9.5C15.0234 7.844 13.6794 6.5 12.0234 6.5C13.6794 6.5 15.0234 5.156 15.0234 3.5C15.0234 1.844 13.6794 0.5 12.0234 0.5H6.02344ZM12.0234 6.5H9.02344L9.02344 9.5C9.02344 7.844 10.3674 6.5 12.0234 6.5Z" fill="white"/>
</g>
<defs>
<clipPath id="clip0_998_12696">
<rect width="18" height="18" fill="white" transform="translate(0 0.5)"/>
</clipPath>
</defs>
</svg>
