<svg width="18" height="19" viewBox="0 0 18 19" fill="none" xmlns="http://www.w3.org/2000/svg">
<path fill-rule="evenodd" clip-rule="evenodd" d="M17.6238 5.17536C17.4168 4.40104 16.807 3.79104 16.0325 3.58405C14.6288 3.20801 8.99993 3.20801 8.99993 3.20801C8.99993 3.20801 3.37123 3.20801 1.9675 3.58405C1.19304 3.79104 0.583183 4.40104 0.376195 5.17536C0 6.57924 0 9.5079 0 9.5079C0 9.5079 0 12.4367 0.376195 13.8404C0.583183 14.6147 1.19304 15.2249 1.9675 15.4317C3.37123 15.8079 8.99993 15.8079 8.99993 15.8079C8.99993 15.8079 14.6288 15.8079 16.0325 15.4317C16.807 15.2249 17.4168 14.6147 17.6238 13.8404C18 12.4367 18 9.5079 18 9.5079C18 9.5079 18 6.57924 17.6238 5.17536Z" fill="#8B8B8B"/>
<path fill-rule="evenodd" clip-rule="evenodd" d="M7.20312 12.2079L11.8794 9.50805L7.20312 6.80786V12.2079Z" fill="#F7F7F7"/>
</svg>
