<svg width="25" height="24" viewBox="0 0 25 24" fill="none" xmlns="http://www.w3.org/2000/svg">
<g clip-path="url(#clip0_998_12704)">
<path fill-rule="evenodd" clip-rule="evenodd" d="M14.4536 7.19185L5.11797 4.31137L5.10403 4.29743L5.09644 4.30479L5.01338 4.27926C4.85694 4.23098 4.68667 4.27324 4.57093 4.38898C4.45518 4.50472 4.41293 4.67499 4.46121 4.83143L4.48473 4.90781L4.47481 4.91751L4.49354 4.93646L7.37402 14.2716C7.9059 15.9952 9.33715 17.275 11.1094 17.6113L14.3196 18.0284L18.2952 22.0039C18.6232 22.3319 19.1549 22.3319 19.4829 22.0039L22.1312 19.3556C22.456 19.0308 22.4596 18.5054 22.1394 18.1762L18.2106 14.1374L17.7936 10.9272C17.4572 9.15504 16.1774 7.72384 14.4536 7.19185ZM12.1972 10.3085C11.7266 9.83789 10.961 9.83792 10.4905 10.3085C10.0199 10.779 10.0199 11.5446 10.4905 12.0152C10.9611 12.4857 11.7266 12.4857 12.1972 12.0152C12.6678 11.5446 12.6677 10.779 12.1972 10.3085ZM16.9257 11.0918L17.4547 14.8928L21.2056 18.7699L18.889 21.0865L15.0751 17.2725L11.274 16.7434C9.82402 16.4682 8.6529 15.4211 8.21765 14.0108L5.83902 6.30164L9.55819 10.0761C9.06934 10.8801 9.1716 11.9453 9.86582 12.6395C10.6807 13.4544 12.0065 13.4544 12.8214 12.6395C13.6362 11.8246 13.6361 10.4987 12.8214 9.68394C12.1004 8.96295 10.9795 8.88045 10.1665 9.43528L6.42573 5.639L14.1928 8.03564C15.6034 8.4705 16.6503 9.64161 16.9257 11.0918Z" fill="black"/>
<path fill-rule="evenodd" clip-rule="evenodd" d="M12.1972 10.3085C11.7266 9.83789 10.961 9.83792 10.4905 10.3085C10.0199 10.779 10.0199 11.5446 10.4905 12.0152C10.9611 12.4857 11.7266 12.4857 12.1972 12.0152C12.6678 11.5446 12.6677 10.779 12.1972 10.3085Z" fill="black"/>
</g>
<defs>
<clipPath id="clip0_998_12704">
<rect width="24" height="24" fill="white" transform="translate(0.9375 0.000976562)"/>
</clipPath>
</defs>
</svg>
