<svg width="24" height="24" viewBox="0 0 24 24" fill="none" xmlns="http://www.w3.org/2000/svg">
<path d="M3.33679 1.98629L20.6624 13.3984C20.6654 13.412 20.667 13.4446 20.6518 13.4886C20.6365 13.5329 20.6118 13.5661 20.5907 13.584C20.5736 13.5986 20.5654 13.5985 20.5626 13.5985L20.5623 13.5985C16.3245 13.6134 10.404 15.3257 8.39779 21.9525C8.39715 21.9546 8.3964 21.9563 8.39386 21.9595C8.3908 21.9632 8.38352 21.9707 8.36903 21.9796C8.33767 21.9989 8.28675 22.0157 8.22709 22.0173C8.16881 22.0189 8.12953 22.0054 8.11268 21.996L3.33679 1.98629Z" stroke="black"/>
</svg>
