<svg width="32" height="32" viewBox="0 0 32 32" fill="none" xmlns="http://www.w3.org/2000/svg">
<circle cx="16" cy="16.001" r="16" fill="white"/>
<g clip-path="url(#clip0_998_12654)">
<path d="M12.6927 26.0009C14.5327 26.0009 16.026 24.5076 16.026 22.6676V19.3342H12.6927C10.8527 19.3342 9.35938 20.8276 9.35938 22.6676C9.35938 24.5076 10.8527 26.0009 12.6927 26.0009Z" fill="#0ACF83"/>
<path d="M9.35938 16.0011C9.35938 14.1611 10.8527 12.6677 12.6927 12.6677H16.026V19.3344H12.6927C10.8527 19.3344 9.35938 17.8411 9.35938 16.0011Z" fill="#A259FF"/>
<path d="M9.35938 9.33431C9.35938 7.49431 10.8527 6.00098 12.6927 6.00098H16.026V12.6676H12.6927C10.8527 12.6676 9.35938 11.1743 9.35938 9.33431Z" fill="#F24E1E"/>
<path d="M16.0234 6.00098H19.3568C21.1968 6.00098 22.6901 7.49431 22.6901 9.33431C22.6901 11.1743 21.1968 12.6676 19.3568 12.6676H16.0234V6.00098Z" fill="#FF7262"/>
<path d="M22.6901 16.0011C22.6901 17.8411 21.1968 19.3344 19.3568 19.3344C17.5168 19.3344 16.0234 17.8411 16.0234 16.0011C16.0234 14.1611 17.5168 12.6677 19.3568 12.6677C21.1968 12.6677 22.6901 14.1611 22.6901 16.0011Z" fill="#1ABCFE"/>
</g>
<defs>
<clipPath id="clip0_998_12654">
<rect width="20" height="20" fill="white" transform="translate(6 6.00098)"/>
</clipPath>
</defs>
</svg>
