<svg width="264" height="103" viewBox="0 0 264 103" fill="none" xmlns="http://www.w3.org/2000/svg">
<rect x="0.1875" y="0.000976562" width="263.811" height="102.655" fill="white"/>
<rect x="22.2656" y="20.9734" width="61.8135" height="61.8135" rx="5.6" fill="#2686EC"/>
<g clip-path="url(#clip0_935_10615)">
<mask id="mask0_935_10615" style="mask-type:luminance" maskUnits="userSpaceOnUse" x="37" y="36" width="32" height="32">
<path d="M37.7344 36.4268H68.6412V67.3335H37.7344V36.4268Z" fill="white"/>
</mask>
<g mask="url(#mask0_935_10615)">
<path d="M58.6234 44.6363C59.6236 44.6363 60.4344 45.4471 60.4344 46.4472C60.4344 47.4474 59.6236 48.2582 58.6234 48.2582C57.6233 48.2582 56.8125 47.4474 56.8125 46.4472" stroke="white" stroke-width="1.64063" stroke-miterlimit="10"/>
<path d="M60.4344 42.8254C60.4344 41.8252 59.6236 41.0145 58.6234 41.0145C57.6233 41.0145 56.8125 41.8252 56.8125 42.8254C56.8125 43.8256 57.6233 44.6364 58.6234 44.6364" stroke="white" stroke-width="1.64063" stroke-miterlimit="10"/>
<path d="M51.375 44.6364C51.375 40.6357 54.6182 37.3322 58.6188 37.3322C62.6194 37.3322 65.8626 40.6357 65.8626 44.6364C65.8626 48.637 62.6194 51.8801 58.6188 51.8801C54.6182 51.8801 51.375 48.637 51.375 44.6364Z" stroke="white" stroke-width="1.64063" stroke-miterlimit="10"/>
<path d="M55.9055 51.3536C55.0667 51.6931 54.1497 51.8801 53.1891 51.8801C49.1885 51.8801 45.9453 48.637 45.9453 44.6364C45.9453 40.6357 49.1885 37.3322 53.1891 37.3322C54.1497 37.3322 55.0667 37.5192 55.9055 37.8587" stroke="white" stroke-width="1.64063" stroke-miterlimit="10"/>
<path d="M50.4758 51.3536C49.637 51.6931 48.72 51.8801 47.7594 51.8801C43.7588 51.8801 40.5156 48.637 40.5156 44.6364C40.5156 40.6357 43.7588 37.3322 47.7594 37.3322C48.72 37.3322 49.637 37.5192 50.4758 37.8587" stroke="white" stroke-width="1.64063" stroke-miterlimit="10"/>
<path d="M58.625 37.3322V41.0144" stroke="white" stroke-width="1.64063" stroke-miterlimit="10"/>
<path d="M58.625 48.2582V51.8801" stroke="white" stroke-width="1.64063" stroke-miterlimit="10"/>
<path d="M42.2625 64.5566H38.6406V55.5019H42.2625V64.5566Z" stroke="white" stroke-width="1.64063" stroke-miterlimit="10"/>
<path d="M56.5871 62.666C57.3299 60.8088 56.3957 58.7807 54.5384 58.0378L49.1366 55.877C48.5171 55.6292 47.856 55.5019 47.1888 55.5019C46.3744 55.5019 45.5714 55.6915 44.8431 56.0557L42.5469 57.1735" stroke="white" stroke-width="1.64063" stroke-miterlimit="10"/>
<path d="M50.6548 60.3862L56.5844 62.666L64.1184 58.9292C65.7821 58.0973 67.7396 59.3072 67.7396 61.1673L59.3544 65.4209C58.03 66.0831 56.5092 66.428 55.0284 66.428C53.8151 66.428 52.6129 66.1964 51.4864 65.7459L42.2656 62.0214" stroke="white" stroke-width="1.64063" stroke-miterlimit="10"/>
</g>
</g>
<path d="M106.493 53.3611C106.415 53.122 106.312 52.9077 106.184 52.7183C106.058 52.5266 105.908 52.3632 105.733 52.2283C105.56 52.0933 105.364 51.9903 105.143 51.9193C104.923 51.8483 104.682 51.8128 104.419 51.8128C103.988 51.8128 103.596 51.9241 103.244 52.1466C102.891 52.3691 102.61 52.697 102.402 53.1303C102.194 53.5635 102.089 54.095 102.089 54.7247C102.089 55.3545 102.195 55.8859 102.406 56.3192C102.616 56.7524 102.902 57.0803 103.261 57.3028C103.621 57.5254 104.026 57.6367 104.476 57.6367C104.893 57.6367 105.259 57.5479 105.577 57.3703C105.896 57.1904 106.145 56.9371 106.322 56.6104C106.502 56.2813 106.592 55.8942 106.592 55.4492L106.862 55.506H104.675V54.7247H107.445V55.506C107.445 56.1049 107.317 56.6258 107.061 57.0685C106.808 57.5112 106.457 57.8545 106.01 58.0983C105.565 58.3398 105.054 58.4605 104.476 58.4605C103.832 58.4605 103.266 58.309 102.778 58.006C102.293 57.7029 101.914 57.2721 101.642 56.7134C101.372 56.1546 101.237 55.4918 101.237 54.7247C101.237 54.1494 101.314 53.6322 101.468 53.1729C101.624 52.7112 101.844 52.3182 102.129 51.9939C102.413 51.6696 102.749 51.421 103.137 51.2482C103.525 51.0753 103.953 50.9889 104.419 50.9889C104.803 50.9889 105.16 51.0469 105.491 51.1629C105.825 51.2766 106.122 51.4387 106.383 51.6494C106.646 51.8578 106.865 52.1075 107.04 52.3987C107.215 52.6876 107.336 53.0083 107.402 53.3611H106.493ZM109.181 58.3611V52.9065H110.019V58.3611H109.181ZM109.607 51.9974C109.444 51.9974 109.303 51.9418 109.185 51.8305C109.069 51.7193 109.011 51.5855 109.011 51.4293C109.011 51.273 109.069 51.1393 109.185 51.028C109.303 50.9167 109.444 50.8611 109.607 50.8611C109.771 50.8611 109.91 50.9167 110.026 51.028C110.145 51.1393 110.204 51.273 110.204 51.4293C110.204 51.5855 110.145 51.7193 110.026 51.8305C109.91 51.9418 109.771 51.9974 109.607 51.9974ZM114.992 56.131V52.9065H115.83V58.3611H114.992V57.4378H114.935C114.807 57.7148 114.608 57.9503 114.338 58.1445C114.068 58.3362 113.727 58.4321 113.316 58.4321C112.975 58.4321 112.672 58.3575 112.406 58.2084C112.141 58.0569 111.933 57.8296 111.781 57.5266C111.63 57.2212 111.554 56.8365 111.554 56.3724V52.9065H112.392V56.3156C112.392 56.7134 112.503 57.0306 112.726 57.2673C112.951 57.5041 113.237 57.6224 113.585 57.6224C113.794 57.6224 114.006 57.5692 114.221 57.4626C114.439 57.3561 114.621 57.1928 114.768 56.9726C114.917 56.7524 114.992 56.4719 114.992 56.131ZM113.316 52.1679L114.182 50.5202H115.162L114.054 52.1679H113.316ZM117.365 60.4065V52.9065H118.174V53.773H118.274C118.335 53.6783 118.421 53.5576 118.529 53.4108C118.641 53.2617 118.799 53.1291 119.005 53.0131C119.214 52.8947 119.495 52.8355 119.85 52.8355C120.31 52.8355 120.715 52.9503 121.065 53.18C121.415 53.4096 121.689 53.7351 121.885 54.1565C122.082 54.5779 122.18 55.0751 122.18 55.648C122.18 56.2257 122.082 56.7264 121.885 57.1501C121.689 57.5715 121.417 57.8983 121.069 58.1303C120.721 58.3599 120.319 58.4747 119.865 58.4747C119.514 58.4747 119.234 58.4167 119.023 58.3007C118.812 58.1823 118.65 58.0486 118.537 57.8994C118.423 57.7479 118.335 57.6224 118.274 57.523H118.203V60.4065H117.365ZM118.189 55.6338C118.189 56.0457 118.249 56.4091 118.37 56.724C118.49 57.0365 118.667 57.2815 118.899 57.4591C119.131 57.6343 119.415 57.7219 119.751 57.7219C120.101 57.7219 120.394 57.6295 120.628 57.4449C120.865 57.2579 121.042 57.0069 121.161 56.692C121.282 56.3748 121.342 56.0221 121.342 55.6338C121.342 55.2503 121.283 54.9046 121.164 54.5969C121.048 54.2867 120.872 54.0417 120.635 53.8618C120.401 53.6795 120.106 53.5884 119.751 53.5884C119.41 53.5884 119.124 53.6748 118.892 53.8476C118.66 54.018 118.484 54.2572 118.366 54.5649C118.248 54.8703 118.189 55.2266 118.189 55.6338ZM127.052 56.3724L127.038 55.3355H127.208L129.595 52.9065H130.632L128.089 55.4776H128.018L127.052 56.3724ZM126.271 58.3611V51.0884H127.109V58.3611H126.271ZM129.737 58.3611L127.606 55.6622L128.203 55.0798L130.802 58.3611H129.737ZM132.548 55.0798V58.3611H131.71V51.0884H132.548V53.7588H132.619C132.747 53.4771 132.939 53.2534 133.195 53.0876C133.453 52.9196 133.796 52.8355 134.225 52.8355C134.596 52.8355 134.922 52.9101 135.201 53.0592C135.481 53.206 135.697 53.4321 135.851 53.7375C136.007 54.0405 136.085 54.4264 136.085 54.8952V58.3611H135.247V54.952C135.247 54.5188 135.135 54.1838 134.91 53.947C134.687 53.7079 134.378 53.5884 133.983 53.5884C133.709 53.5884 133.462 53.6464 133.244 53.7624C133.029 53.8784 132.859 54.0476 132.733 54.2702C132.61 54.4927 132.548 54.7626 132.548 55.0798ZM139.224 58.4889C138.878 58.4889 138.564 58.4238 138.283 58.2936C138.001 58.161 137.777 57.9705 137.612 57.7219C137.446 57.4709 137.363 57.1679 137.363 56.8128C137.363 56.5003 137.424 56.247 137.548 56.0528C137.671 55.8563 137.835 55.7025 138.041 55.5912C138.247 55.4799 138.474 55.3971 138.723 55.3426C138.974 55.2858 139.226 55.2408 139.479 55.2077C139.811 55.1651 140.08 55.1331 140.286 55.1118C140.494 55.0881 140.645 55.0491 140.74 54.9946C140.837 54.9402 140.886 54.8455 140.886 54.7105V54.6821C140.886 54.3317 140.79 54.0595 140.598 53.8653C140.409 53.6712 140.121 53.5742 139.735 53.5742C139.335 53.5742 139.021 53.6617 138.794 53.8369C138.567 54.0121 138.407 54.1992 138.315 54.398L137.519 54.1139C137.661 53.7825 137.851 53.5244 138.087 53.3398C138.326 53.1528 138.587 53.0225 138.869 52.9492C139.153 52.8734 139.432 52.8355 139.707 52.8355C139.882 52.8355 140.083 52.8568 140.31 52.8994C140.54 52.9397 140.761 53.0237 140.974 53.1516C141.19 53.2794 141.369 53.4724 141.511 53.7304C141.653 53.9885 141.724 54.3341 141.724 54.7673V58.3611H140.886V57.6224H140.843C140.786 57.7408 140.692 57.8675 140.559 58.0024C140.426 58.1374 140.25 58.2522 140.03 58.3469C139.81 58.4416 139.541 58.4889 139.224 58.4889ZM139.352 57.7361C139.683 57.7361 139.962 57.671 140.19 57.5408C140.419 57.4106 140.592 57.2425 140.708 57.0365C140.826 56.8305 140.886 56.6139 140.886 56.3867V55.6196C140.85 55.6622 140.772 55.7013 140.651 55.7368C140.533 55.7699 140.396 55.7995 140.239 55.8256C140.085 55.8492 139.935 55.8706 139.788 55.8895C139.644 55.9061 139.527 55.9203 139.437 55.9321C139.219 55.9605 139.015 56.0067 138.826 56.0706C138.639 56.1322 138.487 56.2257 138.371 56.3511C138.258 56.4742 138.201 56.6423 138.201 56.8554C138.201 57.1466 138.309 57.3668 138.524 57.5159C138.742 57.6627 139.018 57.7361 139.352 57.7361ZM139.38 52.1679L140.246 50.5202H141.227L140.119 52.1679H139.38ZM145.469 58.4747C144.958 58.4747 144.518 58.354 144.148 58.1125C143.779 57.871 143.495 57.5384 143.296 57.1146C143.097 56.6909 142.998 56.2067 142.998 55.6622C142.998 55.1082 143.099 54.6194 143.303 54.1956C143.509 53.7695 143.796 53.4368 144.162 53.1977C144.532 52.9563 144.963 52.8355 145.455 52.8355C145.839 52.8355 146.184 52.9065 146.492 53.0486C146.8 53.1906 147.052 53.3895 147.248 53.6452C147.445 53.9009 147.567 54.1992 147.614 54.5401H146.776C146.712 54.2915 146.57 54.0713 146.35 53.8795C146.132 53.6854 145.839 53.5884 145.469 53.5884C145.143 53.5884 144.856 53.6736 144.61 53.844C144.366 54.0121 144.175 54.2501 144.038 54.5578C143.903 54.8632 143.836 55.2219 143.836 55.6338C143.836 56.0552 143.902 56.4222 144.035 56.7347C144.17 57.0472 144.359 57.2898 144.603 57.4626C144.849 57.6355 145.138 57.7219 145.469 57.7219C145.687 57.7219 145.885 57.684 146.062 57.6082C146.24 57.5325 146.39 57.4236 146.513 57.2815C146.636 57.1395 146.724 56.969 146.776 56.7702H147.614C147.567 57.0921 147.45 57.3822 147.263 57.6402C147.078 57.8959 146.833 58.0995 146.528 58.251C146.224 58.4001 145.872 58.4747 145.469 58.4747ZM149.677 55.0798V58.3611H148.839V51.0884H149.677V53.7588H149.748C149.876 53.4771 150.068 53.2534 150.324 53.0876C150.582 52.9196 150.925 52.8355 151.354 52.8355C151.725 52.8355 152.051 52.9101 152.33 53.0592C152.609 53.206 152.826 53.4321 152.98 53.7375C153.136 54.0405 153.214 54.4264 153.214 54.8952V58.3611H152.376V54.952C152.376 54.5188 152.264 54.1838 152.039 53.947C151.816 53.7079 151.507 53.5884 151.112 53.5884C150.837 53.5884 150.591 53.6464 150.373 53.7624C150.158 53.8784 149.988 54.0476 149.862 54.2702C149.739 54.4927 149.677 54.7626 149.677 55.0798ZM159.776 58.4747C159.265 58.4747 158.824 58.354 158.455 58.1125C158.086 57.871 157.801 57.5384 157.603 57.1146C157.404 56.6909 157.304 56.2067 157.304 55.6622C157.304 55.1082 157.406 54.6194 157.61 54.1956C157.816 53.7695 158.102 53.4368 158.469 53.1977C158.838 52.9563 159.269 52.8355 159.762 52.8355C160.145 52.8355 160.491 52.9065 160.799 53.0486C161.106 53.1906 161.359 53.3895 161.555 53.6452C161.752 53.9009 161.873 54.1992 161.921 54.5401H161.083C161.019 54.2915 160.877 54.0713 160.657 53.8795C160.439 53.6854 160.145 53.5884 159.776 53.5884C159.449 53.5884 159.163 53.6736 158.917 53.844C158.673 54.0121 158.482 54.2501 158.345 54.5578C158.21 54.8632 158.142 55.2219 158.142 55.6338C158.142 56.0552 158.209 56.4222 158.341 56.7347C158.476 57.0472 158.666 57.2898 158.909 57.4626C159.156 57.6355 159.444 57.7219 159.776 57.7219C159.994 57.7219 160.191 57.684 160.369 57.6082C160.547 57.5325 160.697 57.4236 160.82 57.2815C160.943 57.1395 161.031 56.969 161.083 56.7702H161.921C161.873 57.0921 161.756 57.3822 161.569 57.6402C161.385 57.8959 161.14 58.0995 160.834 58.251C160.531 58.4001 160.178 58.4747 159.776 58.4747ZM165.362 58.4747C164.869 58.4747 164.437 58.3575 164.066 58.1232C163.696 57.8888 163.408 57.5609 163.199 57.1395C162.993 56.7181 162.89 56.2257 162.89 55.6622C162.89 55.094 162.993 54.5981 163.199 54.1743C163.408 53.7505 163.696 53.4215 164.066 53.1871C164.437 52.9527 164.869 52.8355 165.362 52.8355C165.854 52.8355 166.285 52.9527 166.654 53.1871C167.026 53.4215 167.315 53.7505 167.521 54.1743C167.729 54.5981 167.833 55.094 167.833 55.6622C167.833 56.2257 167.729 56.7181 167.521 57.1395C167.315 57.5609 167.026 57.8888 166.654 58.1232C166.285 58.3575 165.854 58.4747 165.362 58.4747ZM165.362 57.7219C165.736 57.7219 166.044 57.626 166.285 57.4342C166.527 57.2425 166.705 56.9903 166.821 56.6778C166.937 56.3653 166.995 56.0268 166.995 55.6622C166.995 55.2976 166.937 54.9579 166.821 54.643C166.705 54.3282 166.527 54.0737 166.285 53.8795C166.044 53.6854 165.736 53.5884 165.362 53.5884C164.988 53.5884 164.68 53.6854 164.439 53.8795C164.197 54.0737 164.018 54.3282 163.902 54.643C163.786 54.9579 163.728 55.2976 163.728 55.6622C163.728 56.0268 163.786 56.3653 163.902 56.6778C164.018 56.9903 164.197 57.2425 164.439 57.4342C164.68 57.626 164.988 57.7219 165.362 57.7219ZM164.978 52.1679L165.845 50.5202H166.825L165.717 52.1679H164.978ZM174.297 52.9065V53.6168H171.471V52.9065H174.297ZM172.295 51.5997H173.133V56.7986C173.133 57.0353 173.167 57.2129 173.236 57.3313C173.307 57.4473 173.397 57.5254 173.506 57.5656C173.617 57.6035 173.734 57.6224 173.857 57.6224C173.949 57.6224 174.025 57.6177 174.084 57.6082C174.144 57.5964 174.191 57.5869 174.226 57.5798L174.397 58.3327C174.34 58.354 174.261 58.3753 174.159 58.3966C174.057 58.4203 173.928 58.4321 173.772 58.4321C173.535 58.4321 173.303 58.3812 173.076 58.2794C172.851 58.1776 172.664 58.0225 172.515 57.8142C172.368 57.6059 172.295 57.3431 172.295 57.0259V51.5997ZM176.513 55.0798V58.3611H175.675V51.0884H176.513V53.7588H176.584C176.712 53.4771 176.904 53.2534 177.16 53.0876C177.418 52.9196 177.761 52.8355 178.189 52.8355C178.561 52.8355 178.887 52.9101 179.166 53.0592C179.445 53.206 179.662 53.4321 179.816 53.7375C179.972 54.0405 180.05 54.4264 180.05 54.8952V58.3611H179.212V54.952C179.212 54.5188 179.1 54.1838 178.875 53.947C178.652 53.7079 178.343 53.5884 177.948 53.5884C177.673 53.5884 177.427 53.6464 177.209 53.7624C176.994 53.8784 176.823 54.0476 176.698 54.2702C176.575 54.4927 176.513 54.7626 176.513 55.0798ZM183.87 58.4747C183.345 58.4747 182.891 58.3587 182.51 58.1267C182.132 57.8923 181.839 57.5656 181.633 57.1466C181.43 56.7252 181.328 56.2351 181.328 55.6764C181.328 55.1177 181.43 54.6253 181.633 54.1992C181.839 53.7706 182.126 53.4368 182.493 53.1977C182.862 52.9563 183.293 52.8355 183.785 52.8355C184.069 52.8355 184.35 52.8829 184.627 52.9776C184.904 53.0723 185.156 53.2261 185.383 53.4392C185.61 53.6499 185.792 53.9293 185.926 54.2773C186.061 54.6253 186.129 55.0538 186.129 55.5628V55.9179H181.924V55.1935H185.277C185.277 54.8857 185.215 54.6111 185.092 54.3696C184.971 54.1281 184.798 53.9376 184.574 53.7979C184.351 53.6582 184.088 53.5884 183.785 53.5884C183.451 53.5884 183.163 53.6712 182.919 53.8369C182.677 54.0003 182.491 54.2134 182.361 54.4761C182.231 54.7389 182.166 55.0206 182.166 55.3213V55.8043C182.166 56.2162 182.237 56.5654 182.379 56.8519C182.523 57.1359 182.723 57.3526 182.979 57.5017C183.235 57.6485 183.532 57.7219 183.87 57.7219C184.091 57.7219 184.289 57.6911 184.467 57.6295C184.647 57.5656 184.802 57.4709 184.932 57.3455C185.062 57.2176 185.163 57.059 185.234 56.8696L186.044 57.0969C185.958 57.3715 185.815 57.613 185.614 57.8213C185.413 58.0273 185.164 58.1883 184.868 58.3043C184.572 58.4179 184.24 58.4747 183.87 58.4747ZM184.225 51.0315L185.575 52.3242H184.694L183.728 51.4293L182.777 52.3242H181.896L183.245 51.0315H184.225ZM185.717 51.6423H185.12V50.9889C185.319 50.9747 185.466 50.9487 185.561 50.9108C185.655 50.8706 185.703 50.7972 185.703 50.6906C185.703 50.577 185.639 50.4965 185.511 50.4492C185.386 50.4018 185.227 50.3781 185.035 50.3781L185.064 49.9094C185.49 49.9094 185.812 49.9816 186.029 50.126C186.247 50.2704 186.356 50.4634 186.356 50.7048C186.356 50.9179 186.29 51.073 186.157 51.17C186.027 51.2647 185.88 51.3227 185.717 51.344V51.6423ZM192.276 58.4747C191.821 58.4747 191.42 58.3599 191.072 58.1303C190.724 57.8983 190.452 57.5715 190.255 57.1501C190.059 56.7264 189.961 56.2257 189.961 55.648C189.961 55.0751 190.059 54.5779 190.255 54.1565C190.452 53.7351 190.725 53.4096 191.076 53.18C191.426 52.9503 191.831 52.8355 192.29 52.8355C192.645 52.8355 192.926 52.8947 193.132 53.0131C193.34 53.1291 193.499 53.2617 193.608 53.4108C193.719 53.5576 193.805 53.6783 193.867 53.773H193.938V51.0884H194.776V58.3611H193.966V57.523H193.867C193.805 57.6224 193.718 57.7479 193.604 57.8994C193.49 58.0486 193.328 58.1823 193.118 58.3007C192.907 58.4167 192.626 58.4747 192.276 58.4747ZM192.39 57.7219C192.726 57.7219 193.01 57.6343 193.242 57.4591C193.474 57.2815 193.65 57.0365 193.771 56.724C193.892 56.4091 193.952 56.0457 193.952 55.6338C193.952 55.2266 193.893 54.8703 193.775 54.5649C193.656 54.2572 193.481 54.018 193.249 53.8476C193.017 53.6748 192.73 53.5884 192.39 53.5884C192.034 53.5884 191.739 53.6795 191.502 53.8618C191.267 54.0417 191.091 54.2867 190.973 54.5969C190.857 54.9046 190.799 55.2503 190.799 55.6338C190.799 56.0221 190.858 56.3748 190.976 56.692C191.097 57.0069 191.275 57.2579 191.509 57.4449C191.746 57.6295 192.039 57.7219 192.39 57.7219ZM192.432 52.4378V51.7844H195.557V52.4378H192.432ZM198.032 58.4889C197.687 58.4889 197.373 58.4238 197.091 58.2936C196.81 58.161 196.586 57.9705 196.42 57.7219C196.254 57.4709 196.172 57.1679 196.172 56.8128C196.172 56.5003 196.233 56.247 196.356 56.0528C196.479 55.8563 196.644 55.7025 196.85 55.5912C197.056 55.4799 197.283 55.3971 197.532 55.3426C197.783 55.2858 198.035 55.2408 198.288 55.2077C198.619 55.1651 198.888 55.1331 199.094 55.1118C199.302 55.0881 199.454 55.0491 199.549 54.9946C199.646 54.9402 199.694 54.8455 199.694 54.7105V54.6821C199.694 54.3317 199.598 54.0595 199.407 53.8653C199.217 53.6712 198.93 53.5742 198.544 53.5742C198.144 53.5742 197.83 53.6617 197.603 53.8369C197.375 54.0121 197.216 54.1992 197.123 54.398L196.328 54.1139C196.47 53.7825 196.659 53.5244 196.896 53.3398C197.135 53.1528 197.395 53.0225 197.677 52.9492C197.961 52.8734 198.241 52.8355 198.515 52.8355C198.69 52.8355 198.892 52.8568 199.119 52.8994C199.349 52.9397 199.57 53.0237 199.783 53.1516C199.998 53.2794 200.177 53.4724 200.319 53.7304C200.461 53.9885 200.532 54.3341 200.532 54.7673V58.3611H199.694V57.6224H199.652C199.595 57.7408 199.5 57.8675 199.368 58.0024C199.235 58.1374 199.059 58.2522 198.838 58.3469C198.618 58.4416 198.35 58.4889 198.032 58.4889ZM198.16 57.7361C198.492 57.7361 198.771 57.671 198.998 57.5408C199.228 57.4106 199.401 57.2425 199.517 57.0365C199.635 56.8305 199.694 56.6139 199.694 56.3867V55.6196C199.659 55.6622 199.581 55.7013 199.46 55.7368C199.342 55.7699 199.204 55.7995 199.048 55.8256C198.894 55.8492 198.744 55.8706 198.597 55.8895C198.453 55.9061 198.335 55.9203 198.245 55.9321C198.028 55.9605 197.824 56.0067 197.635 56.0706C197.448 56.1322 197.296 56.2257 197.18 56.3511C197.066 56.4742 197.01 56.6423 197.01 56.8554C197.01 57.1466 197.117 57.3668 197.333 57.5159C197.551 57.6627 197.826 57.7361 198.16 57.7361ZM199.268 51.0884H200.049C200.049 51.4719 199.917 51.7856 199.652 52.0294C199.386 52.2733 199.027 52.3952 198.572 52.3952C198.125 52.3952 197.768 52.2733 197.503 52.0294C197.24 51.7856 197.109 51.4719 197.109 51.0884H197.89C197.89 51.273 197.941 51.4352 198.043 51.5749C198.147 51.7145 198.324 51.7844 198.572 51.7844C198.821 51.7844 198.998 51.7145 199.105 51.5749C199.214 51.4352 199.268 51.273 199.268 51.0884ZM198.529 60.1651C198.366 60.1651 198.225 60.1094 198.107 59.9982C197.991 59.8869 197.933 59.7531 197.933 59.5969C197.933 59.4406 197.991 59.3069 198.107 59.1956C198.225 59.0843 198.366 59.0287 198.529 59.0287C198.693 59.0287 198.833 59.0843 198.949 59.1956C199.067 59.3069 199.126 59.4406 199.126 59.5969C199.126 59.7531 199.067 59.8869 198.949 59.9982C198.833 60.1094 198.693 60.1651 198.529 60.1651ZM204.434 52.9065V53.6168H201.607V52.9065H204.434ZM202.431 51.5997H203.269V56.7986C203.269 57.0353 203.304 57.2129 203.372 57.3313C203.443 57.4473 203.533 57.5254 203.642 57.5656C203.753 57.6035 203.871 57.6224 203.994 57.6224C204.086 57.6224 204.162 57.6177 204.221 57.6082C204.28 57.5964 204.328 57.5869 204.363 57.5798L204.534 58.3327C204.477 58.354 204.397 58.3753 204.296 58.3966C204.194 58.4203 204.065 58.4321 203.909 58.4321C203.672 58.4321 203.44 58.3812 203.213 58.2794C202.988 58.1776 202.801 58.0225 202.651 57.8142C202.505 57.6059 202.431 57.3431 202.431 57.0259V51.5997ZM209.345 55.0798V58.3611H208.507V51.0884H209.345V53.7588H209.416C209.544 53.4771 209.736 53.2534 209.992 53.0876C210.25 52.9196 210.593 52.8355 211.021 52.8355C211.393 52.8355 211.719 52.9101 211.998 53.0592C212.277 53.206 212.494 53.4321 212.648 53.7375C212.804 54.0405 212.882 54.4264 212.882 54.8952V58.3611H212.044V54.952C212.044 54.5188 211.932 54.1838 211.707 53.947C211.484 53.7079 211.175 53.5884 210.78 53.5884C210.505 53.5884 210.259 53.6464 210.041 53.7624C209.826 53.8784 209.655 54.0476 209.53 54.2702C209.407 54.4927 209.345 54.7626 209.345 55.0798ZM216.021 58.4889C215.675 58.4889 215.361 58.4238 215.08 58.2936C214.798 58.161 214.574 57.9705 214.408 57.7219C214.243 57.4709 214.16 57.1679 214.16 56.8128C214.16 56.5003 214.221 56.247 214.344 56.0528C214.468 55.8563 214.632 55.7025 214.838 55.5912C215.044 55.4799 215.271 55.3971 215.52 55.3426C215.771 55.2858 216.023 55.2408 216.276 55.2077C216.608 55.1651 216.876 55.1331 217.082 55.1118C217.291 55.0881 217.442 55.0491 217.537 54.9946C217.634 54.9402 217.683 54.8455 217.683 54.7105V54.6821C217.683 54.3317 217.587 54.0595 217.395 53.8653C217.205 53.6712 216.918 53.5742 216.532 53.5742C216.132 53.5742 215.818 53.6617 215.591 53.8369C215.364 54.0121 215.204 54.1992 215.112 54.398L214.316 54.1139C214.458 53.7825 214.647 53.5244 214.884 53.3398C215.123 53.1528 215.384 53.0225 215.665 52.9492C215.95 52.8734 216.229 52.8355 216.504 52.8355C216.679 52.8355 216.88 52.8568 217.107 52.8994C217.337 52.9397 217.558 53.0237 217.771 53.1516C217.987 53.2794 218.165 53.4724 218.308 53.7304C218.45 53.9885 218.521 54.3341 218.521 54.7673V58.3611H217.683V57.6224H217.64C217.583 57.7408 217.488 57.8675 217.356 58.0024C217.223 58.1374 217.047 58.2522 216.827 58.3469C216.607 58.4416 216.338 58.4889 216.021 58.4889ZM216.148 57.7361C216.48 57.7361 216.759 57.671 216.987 57.5408C217.216 57.4106 217.389 57.2425 217.505 57.0365C217.623 56.8305 217.683 56.6139 217.683 56.3867V55.6196C217.647 55.6622 217.569 55.7013 217.448 55.7368C217.33 55.7699 217.192 55.7995 217.036 55.8256C216.882 55.8492 216.732 55.8706 216.585 55.8895C216.441 55.9061 216.324 55.9203 216.234 55.9321C216.016 55.9605 215.812 56.0067 215.623 56.0706C215.436 56.1322 215.284 56.2257 215.168 56.3511C215.055 56.4742 214.998 56.6423 214.998 56.8554C214.998 57.1466 215.106 57.3668 215.321 57.5159C215.539 57.6627 215.815 57.7361 216.148 57.7361ZM216.205 52.1679L215.097 50.5202H216.077L216.944 52.1679H216.205ZM220.888 55.0798V58.3611H220.05V52.9065H220.86V53.7588H220.931C221.059 53.4818 221.253 53.2593 221.513 53.0912C221.774 52.9207 222.11 52.8355 222.522 52.8355C222.891 52.8355 223.214 52.9113 223.491 53.0628C223.768 53.2119 223.984 53.4392 224.138 53.7446C224.291 54.0476 224.368 54.4312 224.368 54.8952V58.3611H223.53V54.952C223.53 54.5235 223.419 54.1897 223.197 53.9506C222.974 53.7091 222.669 53.5884 222.28 53.5884C222.013 53.5884 221.774 53.6464 221.563 53.7624C221.355 53.8784 221.19 54.0476 221.069 54.2702C220.949 54.4927 220.888 54.7626 220.888 55.0798ZM228.102 60.5202C227.697 60.5202 227.349 60.4681 227.058 60.3639C226.766 60.2621 226.524 60.1272 226.33 59.9591C226.138 59.7934 225.985 59.6158 225.871 59.4264L226.539 58.9577C226.615 59.0571 226.711 59.1707 226.827 59.2986C226.943 59.4288 227.101 59.5412 227.303 59.6359C227.506 59.733 227.772 59.7815 228.102 59.7815C228.542 59.7815 228.905 59.675 229.192 59.4619C229.478 59.2489 229.621 58.9151 229.621 58.4605V57.3526H229.55C229.489 57.452 229.401 57.5751 229.288 57.7219C229.176 57.8663 229.015 57.9953 228.805 58.109C228.596 58.2202 228.315 58.2759 227.96 58.2759C227.519 58.2759 227.124 58.1717 226.773 57.9634C226.425 57.755 226.15 57.452 225.946 57.0543C225.745 56.6565 225.644 56.1736 225.644 55.6054C225.644 55.0467 225.742 54.5602 225.939 54.1459C226.135 53.7292 226.409 53.4072 226.759 53.18C227.11 52.9503 227.514 52.8355 227.974 52.8355C228.329 52.8355 228.611 52.8947 228.819 53.0131C229.03 53.1291 229.191 53.2617 229.302 53.4108C229.415 53.5576 229.503 53.6783 229.565 53.773H229.65V52.9065H230.46V58.5173C230.46 58.9861 230.353 59.3672 230.14 59.6608C229.929 59.9567 229.645 60.1733 229.288 60.3107C228.933 60.4503 228.537 60.5202 228.102 60.5202ZM228.073 57.523C228.409 57.523 228.693 57.4461 228.925 57.2922C229.157 57.1383 229.334 56.917 229.455 56.6281C229.575 56.3393 229.636 55.9937 229.636 55.5912C229.636 55.1982 229.576 54.8514 229.458 54.5507C229.34 54.2501 229.165 54.0145 228.933 53.844C228.701 53.6736 228.414 53.5884 228.073 53.5884C227.718 53.5884 227.422 53.6783 227.185 53.8582C226.951 54.0382 226.775 54.2796 226.656 54.5827C226.54 54.8857 226.482 55.2219 226.482 55.5912C226.482 55.97 226.541 56.305 226.66 56.5962C226.781 56.885 226.958 57.1123 227.192 57.278C227.429 57.4413 227.723 57.523 228.073 57.523ZM105.129 76.4065V73.523H105.058C104.997 73.6224 104.909 73.7479 104.795 73.8994C104.682 74.0486 104.52 74.1823 104.309 74.3007C104.098 74.4167 103.818 74.4747 103.467 74.4747C103.013 74.4747 102.612 74.3599 102.263 74.1303C101.915 73.8983 101.643 73.5715 101.447 73.1501C101.25 72.7264 101.152 72.2257 101.152 71.648C101.152 71.0751 101.25 70.5779 101.447 70.1565C101.643 69.7351 101.917 69.4096 102.267 69.18C102.617 68.9503 103.022 68.8355 103.482 68.8355C103.837 68.8355 104.117 68.8947 104.323 69.0131C104.531 69.1291 104.69 69.2617 104.799 69.4108C104.91 69.5576 104.997 69.6783 105.058 69.773H105.158V68.9065H105.967V76.4065H105.129ZM103.581 73.7219C103.917 73.7219 104.201 73.6343 104.433 73.4591C104.665 73.2815 104.842 73.0365 104.962 72.724C105.083 72.4091 105.143 72.0457 105.143 71.6338C105.143 71.2266 105.084 70.8703 104.966 70.5649C104.848 70.2572 104.672 70.018 104.44 69.8476C104.208 69.6748 103.922 69.5884 103.581 69.5884C103.226 69.5884 102.93 69.6795 102.693 69.8618C102.459 70.0417 102.282 70.2867 102.164 70.5969C102.048 70.9046 101.99 71.2503 101.99 71.6338C101.99 72.0221 102.049 72.3748 102.168 72.692C102.288 73.0069 102.466 73.2579 102.7 73.4449C102.937 73.6295 103.231 73.7219 103.581 73.7219ZM110.939 72.131V68.9065H111.777V74.3611H110.939V73.4378H110.882C110.754 73.7148 110.555 73.9503 110.286 74.1445C110.016 74.3362 109.675 74.4321 109.263 74.4321C108.922 74.4321 108.619 74.3575 108.354 74.2084C108.089 74.0569 107.88 73.8296 107.729 73.5266C107.577 73.2212 107.501 72.8365 107.501 72.3724V68.9065H108.339V72.3156C108.339 72.7134 108.451 73.0306 108.673 73.2673C108.898 73.5041 109.185 73.6224 109.533 73.6224C109.741 73.6224 109.953 73.5692 110.168 73.4626C110.386 73.3561 110.568 73.1928 110.715 72.9726C110.864 72.7524 110.939 72.4719 110.939 72.131ZM114.917 74.4889C114.571 74.4889 114.258 74.4238 113.976 74.2936C113.694 74.161 113.471 73.9705 113.305 73.7219C113.139 73.4709 113.056 73.1679 113.056 72.8128C113.056 72.5003 113.118 72.247 113.241 72.0528C113.364 71.8563 113.529 71.7025 113.735 71.5912C113.941 71.4799 114.168 71.3971 114.416 71.3426C114.667 71.2858 114.919 71.2408 115.173 71.2077C115.504 71.1651 115.773 71.1331 115.979 71.1118C116.187 71.0881 116.339 71.0491 116.433 70.9946C116.53 70.9402 116.579 70.8455 116.579 70.7105V70.6821C116.579 70.3317 116.483 70.0595 116.291 69.8653C116.102 69.6712 115.814 69.5742 115.428 69.5742C115.028 69.5742 114.715 69.6617 114.487 69.8369C114.26 70.0121 114.1 70.1992 114.008 70.398L113.213 70.1139C113.355 69.7825 113.544 69.5244 113.781 69.3398C114.02 69.1528 114.28 69.0225 114.562 68.9492C114.846 68.8734 115.125 68.8355 115.4 68.8355C115.575 68.8355 115.776 68.8568 116.004 68.8994C116.233 68.9397 116.455 69.0237 116.668 69.1516C116.883 69.2794 117.062 69.4724 117.204 69.7304C117.346 69.9885 117.417 70.3341 117.417 70.7673V74.3611H116.579V73.6224H116.536C116.48 73.7408 116.385 73.8675 116.252 74.0024C116.12 74.1374 115.943 74.2522 115.723 74.3469C115.503 74.4416 115.234 74.4889 114.917 74.4889ZM115.045 73.7361C115.376 73.7361 115.656 73.671 115.883 73.5408C116.113 73.4106 116.285 73.2425 116.401 73.0365C116.52 72.8305 116.579 72.6139 116.579 72.3867V71.6196C116.544 71.6622 116.465 71.7013 116.345 71.7368C116.226 71.7699 116.089 71.7995 115.933 71.8256C115.779 71.8492 115.628 71.8706 115.482 71.8895C115.337 71.9061 115.22 71.9203 115.13 71.9321C114.912 71.9605 114.709 72.0067 114.519 72.0706C114.332 72.1322 114.181 72.2257 114.065 72.3511C113.951 72.4742 113.894 72.6423 113.894 72.8554C113.894 73.1466 114.002 73.3668 114.218 73.5159C114.435 73.6627 114.711 73.7361 115.045 73.7361ZM122.597 71.0798V74.3611H121.759V67.0884H122.597V69.7588H122.668C122.796 69.4771 122.988 69.2534 123.244 69.0876C123.502 68.9196 123.845 68.8355 124.273 68.8355C124.645 68.8355 124.971 68.9101 125.25 69.0592C125.529 69.206 125.746 69.4321 125.9 69.7375C126.056 70.0405 126.134 70.4264 126.134 70.8952V74.3611H125.296V70.952C125.296 70.5188 125.184 70.1838 124.959 69.947C124.736 69.7079 124.427 69.5884 124.032 69.5884C123.757 69.5884 123.511 69.6464 123.293 69.7624C123.078 69.8784 122.907 70.0476 122.782 70.2702C122.659 70.4927 122.597 70.7626 122.597 71.0798ZM129.954 74.4747C129.429 74.4747 128.975 74.3587 128.594 74.1267C128.215 73.8923 127.923 73.5656 127.717 73.1466C127.514 72.7252 127.412 72.2351 127.412 71.6764C127.412 71.1177 127.514 70.6253 127.717 70.1992C127.923 69.7706 128.21 69.4368 128.577 69.1977C128.946 68.9563 129.377 68.8355 129.869 68.8355C130.153 68.8355 130.434 68.8829 130.711 68.9776C130.988 69.0723 131.24 69.2261 131.467 69.4392C131.694 69.6499 131.876 69.9293 132.01 70.2773C132.145 70.6253 132.213 71.0538 132.213 71.5628V71.9179H128.008V71.1935H131.361C131.361 70.8857 131.299 70.6111 131.176 70.3696C131.055 70.1281 130.882 69.9376 130.657 69.7979C130.435 69.6582 130.172 69.5884 129.869 69.5884C129.535 69.5884 129.247 69.6712 129.003 69.8369C128.761 70.0003 128.575 70.2134 128.445 70.4761C128.315 70.7389 128.25 71.0206 128.25 71.3213V71.8043C128.25 72.2162 128.321 72.5654 128.463 72.8519C128.607 73.1359 128.807 73.3526 129.063 73.5017C129.319 73.6485 129.616 73.7219 129.954 73.7219C130.175 73.7219 130.373 73.6911 130.551 73.6295C130.731 73.5656 130.886 73.4709 131.016 73.3455C131.146 73.2176 131.247 73.059 131.318 72.8696L132.128 73.0969C132.042 73.3715 131.899 73.613 131.698 73.8213C131.497 74.0273 131.248 74.1883 130.952 74.3043C130.656 74.4179 130.324 74.4747 129.954 74.4747ZM130.565 68.2531L129.827 67.2588L129.088 68.2531H128.292V68.1963L129.443 66.719H130.21L131.361 68.1963V68.2531H130.565ZM129.827 76.1651C129.663 76.1651 129.522 76.1094 129.404 75.9982C129.288 75.8869 129.23 75.7531 129.23 75.5969C129.23 75.4406 129.288 75.3069 129.404 75.1956C129.522 75.0843 129.663 75.0287 129.827 75.0287C129.99 75.0287 130.13 75.0843 130.246 75.1956C130.364 75.3069 130.423 75.4406 130.423 75.5969C130.423 75.7531 130.364 75.8869 130.246 75.9982C130.13 76.1094 129.99 76.1651 129.827 76.1651ZM138.672 68.9065V69.6168H135.846V68.9065H138.672ZM136.67 67.5997H137.508V72.7986C137.508 73.0353 137.542 73.2129 137.611 73.3313C137.682 73.4473 137.772 73.5254 137.881 73.5656C137.992 73.6035 138.109 73.6224 138.232 73.6224C138.324 73.6224 138.4 73.6177 138.459 73.6082C138.519 73.5964 138.566 73.5869 138.601 73.5798L138.772 74.3327C138.715 74.354 138.636 74.3753 138.534 74.3966C138.432 74.4203 138.303 74.4321 138.147 74.4321C137.91 74.4321 137.678 74.3812 137.451 74.2794C137.226 74.1776 137.039 74.0225 136.89 73.8142C136.743 73.6059 136.67 73.3431 136.67 73.0259V67.5997ZM140.888 71.0798V74.3611H140.05V67.0884H140.888V69.7588H140.959C141.087 69.4771 141.279 69.2534 141.535 69.0876C141.793 68.9196 142.136 68.8355 142.564 68.8355C142.936 68.8355 143.262 68.9101 143.541 69.0592C143.82 69.206 144.037 69.4321 144.191 69.7375C144.347 70.0405 144.425 70.4264 144.425 70.8952V74.3611H143.587V70.952C143.587 70.5188 143.475 70.1838 143.25 69.947C143.027 69.7079 142.718 69.5884 142.323 69.5884C142.048 69.5884 141.802 69.6464 141.584 69.7624C141.369 69.8784 141.198 70.0476 141.073 70.2702C140.95 70.4927 140.888 70.7626 140.888 71.0798ZM148.174 74.4747C147.682 74.4747 147.25 74.3575 146.878 74.1232C146.509 73.8888 146.22 73.5609 146.012 73.1395C145.806 72.7181 145.703 72.2257 145.703 71.6622C145.703 71.094 145.806 70.5981 146.012 70.1743C146.22 69.7505 146.509 69.4215 146.878 69.1871C147.25 68.9527 147.682 68.8355 148.174 68.8355C148.667 68.8355 149.098 68.9527 149.467 69.1871C149.839 69.4215 150.127 69.7505 150.333 70.1743C150.542 70.5981 150.646 71.094 150.646 71.6622C150.646 72.2257 150.542 72.7181 150.333 73.1395C150.127 73.5609 149.839 73.8888 149.467 74.1232C149.098 74.3575 148.667 74.4747 148.174 74.4747ZM148.174 73.7219C148.548 73.7219 148.856 73.626 149.098 73.4342C149.339 73.2425 149.518 72.9903 149.634 72.6778C149.75 72.3653 149.808 72.0268 149.808 71.6622C149.808 71.2976 149.75 70.9579 149.634 70.643C149.518 70.3282 149.339 70.0737 149.098 69.8795C148.856 69.6854 148.548 69.5884 148.174 69.5884C147.8 69.5884 147.493 69.6854 147.251 69.8795C147.01 70.0737 146.831 70.3282 146.715 70.643C146.599 70.9579 146.541 71.2976 146.541 71.6622C146.541 72.0268 146.599 72.3653 146.715 72.6778C146.831 72.9903 147.01 73.2425 147.251 73.4342C147.493 73.626 147.8 73.7219 148.174 73.7219ZM148.913 68.2531L148.174 67.2588L147.436 68.2531H146.64V68.1963L147.791 66.719H148.558L149.708 68.1963V68.2531H148.913ZM152.763 71.0798V74.3611H151.925V68.9065H152.735V69.7588H152.806C152.934 69.4818 153.128 69.2593 153.388 69.0912C153.649 68.9207 153.985 68.8355 154.397 68.8355C154.766 68.8355 155.089 68.9113 155.366 69.0628C155.643 69.2119 155.859 69.4392 156.013 69.7446C156.166 70.0476 156.243 70.4312 156.243 70.8952V74.3611H155.405V70.952C155.405 70.5235 155.294 70.1897 155.072 69.9506C154.849 69.7091 154.544 69.5884 154.155 69.5884C153.888 69.5884 153.649 69.6464 153.438 69.7624C153.23 69.8784 153.065 70.0476 152.944 70.2702C152.824 70.4927 152.763 70.7626 152.763 71.0798ZM159.977 76.5202C159.572 76.5202 159.224 76.4681 158.933 76.3639C158.641 76.2621 158.399 76.1272 158.205 75.9591C158.013 75.7934 157.86 75.6158 157.746 75.4264L158.414 74.9577C158.49 75.0571 158.586 75.1707 158.702 75.2986C158.818 75.4288 158.976 75.5412 159.178 75.6359C159.381 75.733 159.647 75.7815 159.977 75.7815C160.417 75.7815 160.78 75.675 161.067 75.4619C161.353 75.2489 161.496 74.9151 161.496 74.4605V73.3526H161.425C161.364 73.452 161.276 73.5751 161.163 73.7219C161.051 73.8663 160.89 73.9953 160.68 74.109C160.471 74.2202 160.19 74.2759 159.835 74.2759C159.394 74.2759 158.999 74.1717 158.648 73.9634C158.3 73.755 158.025 73.452 157.821 73.0543C157.62 72.6565 157.519 72.1736 157.519 71.6054C157.519 71.0467 157.617 70.5602 157.814 70.1459C158.01 69.7292 158.284 69.4072 158.634 69.18C158.985 68.9503 159.389 68.8355 159.849 68.8355C160.204 68.8355 160.486 68.8947 160.694 69.0131C160.905 69.1291 161.066 69.2617 161.177 69.4108C161.29 69.5576 161.378 69.6783 161.44 69.773H161.525V68.9065H162.335V74.5173C162.335 74.9861 162.228 75.3672 162.015 75.6608C161.804 75.9567 161.52 76.1733 161.163 76.3107C160.808 76.4503 160.412 76.5202 159.977 76.5202ZM159.948 73.523C160.284 73.523 160.568 73.4461 160.8 73.2922C161.032 73.1383 161.209 72.917 161.33 72.6281C161.45 72.3393 161.511 71.9937 161.511 71.5912C161.511 71.1982 161.451 70.8514 161.333 70.5507C161.215 70.2501 161.04 70.0145 160.808 69.844C160.576 69.6736 160.289 69.5884 159.948 69.5884C159.593 69.5884 159.297 69.6783 159.06 69.8582C158.826 70.0382 158.65 70.2796 158.531 70.5827C158.415 70.8857 158.357 71.2219 158.357 71.5912C158.357 71.97 158.416 72.305 158.535 72.5962C158.656 72.885 158.833 73.1123 159.067 73.278C159.304 73.4413 159.598 73.523 159.948 73.523Z" fill="#5F5F5F"/>
<path d="M101.645 34.4543V24.2725H103.489V28.9508H103.614L107.586 24.2725H109.838L105.901 28.8414L109.873 34.4543H107.656L104.618 30.0893L103.489 31.4217V34.4543H101.645ZM111.598 37.318C111.353 37.318 111.126 37.2981 110.917 37.2583C110.711 37.2219 110.547 37.1788 110.425 37.1291L110.842 35.7271C111.104 35.8033 111.338 35.8398 111.543 35.8364C111.749 35.8331 111.929 35.7685 112.085 35.6426C112.244 35.5199 112.379 35.3144 112.488 35.0261L112.642 34.6134L109.873 26.818H111.782L113.542 32.585H113.621L115.386 26.818H117.3L114.243 35.3791C114.1 35.7834 113.911 36.1298 113.676 36.4181C113.441 36.7098 113.152 36.9319 112.811 37.0843C112.473 37.2401 112.069 37.318 111.598 37.318ZM112.891 25.8137L114.004 23.5417H115.764L114.238 25.8137H112.891ZM125.339 37.4771C124.693 37.4771 124.138 37.3892 123.674 37.2136C123.21 37.0412 122.837 36.8092 122.555 36.5176C122.274 36.2259 122.078 35.9027 121.969 35.5481L123.589 35.1553C123.662 35.3045 123.768 35.452 123.908 35.5978C124.047 35.747 124.234 35.8696 124.469 35.9657C124.708 36.0651 125.008 36.1149 125.369 36.1149C125.88 36.1149 126.302 35.9906 126.637 35.742C126.972 35.4967 127.139 35.0924 127.139 34.5289V33.0822H127.05C126.957 33.2678 126.821 33.4584 126.642 33.6539C126.466 33.8495 126.233 34.0135 125.941 34.1461C125.653 34.2787 125.29 34.345 124.852 34.345C124.266 34.345 123.734 34.2074 123.256 33.9323C122.782 33.6539 122.405 33.2396 122.123 32.6894C121.844 32.1359 121.705 31.4432 121.705 30.6113C121.705 29.7728 121.844 29.0651 122.123 28.4884C122.405 27.9084 122.784 27.4693 123.261 27.171C123.739 26.8694 124.271 26.7186 124.857 26.7186C125.305 26.7186 125.673 26.7948 125.961 26.9472C126.253 27.0964 126.485 27.277 126.657 27.4891C126.829 27.698 126.96 27.8952 127.05 28.0808H127.149V26.818H128.924V34.5786C128.924 35.2316 128.768 35.7718 128.457 36.1994C128.145 36.6269 127.719 36.9468 127.179 37.1589C126.639 37.371 126.026 37.4771 125.339 37.4771ZM125.354 32.933C125.736 32.933 126.06 32.8402 126.329 32.6546C126.597 32.469 126.801 32.2022 126.94 31.8542C127.08 31.5062 127.149 31.0886 127.149 30.6014C127.149 30.1208 127.08 29.6998 126.94 29.3386C126.804 28.9773 126.602 28.6972 126.334 28.4984C126.069 28.2962 125.742 28.1951 125.354 28.1951C124.953 28.1951 124.619 28.2995 124.35 28.5083C124.082 28.7171 123.879 29.0038 123.744 29.3684C123.608 29.7297 123.54 30.1407 123.54 30.6014C123.54 31.0687 123.608 31.478 123.744 31.8293C123.883 32.1774 124.087 32.4491 124.355 32.6447C124.627 32.8369 124.96 32.933 125.354 32.933ZM138.445 26.4252H139.603C139.603 26.9754 139.523 27.4378 139.364 27.8123C139.209 28.1835 138.942 28.4636 138.564 28.6525C138.186 28.8414 137.664 28.9359 136.998 28.9359V28.031C137.442 28.031 137.765 27.9747 137.967 27.862C138.17 27.746 138.299 27.5687 138.355 27.3301C138.411 27.0914 138.441 26.7898 138.445 26.4252ZM135.665 31.2427V26.818H137.47V34.4543H135.72V33.0971H135.641C135.468 33.5247 135.185 33.8743 134.79 34.1461C134.399 34.4179 133.917 34.5538 133.344 34.5538C132.843 34.5538 132.401 34.4427 132.016 34.2207C131.635 33.9953 131.337 33.6688 131.121 33.2413C130.906 32.8104 130.798 32.29 130.798 31.6802V26.818H132.598V31.4018C132.601 31.8857 132.734 32.2702 132.996 32.5552C133.261 32.8402 133.609 32.9828 134.04 32.9828C134.305 32.9828 134.562 32.9181 134.81 32.7889C135.062 32.6596 135.268 32.4674 135.427 32.2122C135.589 31.9536 135.669 31.6305 135.665 31.2427ZM134.835 25.7441H133.463L133.393 24.7896C133.745 24.7763 133.993 24.7316 134.139 24.6553C134.285 24.5758 134.356 24.4664 134.353 24.3272C134.356 24.1482 134.26 24.0239 134.065 23.9543C133.869 23.8847 133.627 23.8499 133.339 23.8499L133.384 22.96C134.205 22.96 134.829 23.0793 135.253 23.318C135.677 23.5566 135.888 23.8814 135.884 24.2924C135.888 24.6073 135.78 24.8426 135.561 24.9984C135.342 25.1508 135.1 25.247 134.835 25.2867V25.7441ZM140.284 34.4543V26.818H142.084V34.4543H140.284ZM141.189 25.7342C140.904 25.7342 140.659 25.6397 140.453 25.4508C140.248 25.2586 140.145 25.0282 140.145 24.7597C140.145 24.488 140.248 24.2576 140.453 24.0687C140.659 23.8765 140.904 23.7803 141.189 23.7803C141.477 23.7803 141.723 23.8765 141.925 24.0687C142.13 24.2576 142.233 24.488 142.233 24.7597C142.233 25.0282 142.13 25.2586 141.925 25.4508C141.723 25.6397 141.477 25.7342 141.189 25.7342Z" fill="black"/>
<defs>
<clipPath id="clip0_935_10615">
<rect width="30.9068" height="30.9067" fill="white" transform="translate(37.7188 36.4268)"/>
</clipPath>
</defs>
</svg>
