<svg width="120" height="120" viewBox="0 0 120 120" fill="none" xmlns="http://www.w3.org/2000/svg">
<g style="mix-blend-mode:multiply">
<circle cx="51" cy="69" r="36" fill="#3ED1FF"/>
</g>
<g style="mix-blend-mode:multiply">
<circle cx="77.998" cy="42" r="27" fill="#FF4BAD"/>
</g>
</svg>
