<svg width="131" height="65" viewBox="0 0 131 65" fill="none" xmlns="http://www.w3.org/2000/svg">
<path d="M53.7935 62.5304C62.6724 55.5373 77.9266 45.7874 73.4787 32.1657C70.7363 23.7673 60.2768 21.377 52.598 20.4502C46.1817 19.6758 39.5049 20.8629 42.078 28.9778C45.5517 39.9335 59.9944 43.092 69.8923 44.2797C74.9642 44.8883 84.975 45.8553 86.1506 38.6212C88.3891 24.8453 64.8319 15.6113 55.5468 11.8429C44.6624 7.4254 15.8285 -3.4361 4.69994 5.30774C-11.6176 18.1286 51.1991 42.0341 55.0686 43.0843C73.168 47.9964 108.301 56.4302 125.999 45.0767C139.786 36.2325 92.536 23.0614 89.0197 22.363C84.1489 21.3955 57.574 15.8555 60.7271 28.8184C62.8215 37.4288 74.2425 39.4019 81.6078 38.3821C111.623 34.2261 78.4969 -7.29679 64.7917 4.51076C54.4199 13.4464 71.515 21.5477 77.8621 22.8411C94.0916 26.1486 110.768 24.4744 126.956 22.363" stroke="#2686EC" stroke-width="3" stroke-linecap="round"/>
</svg>
