<svg width="606" height="405" viewBox="0 0 606 405" fill="none" xmlns="http://www.w3.org/2000/svg">
<path d="M5.84781 298.589L4.91464 298.948L5.84781 298.589ZM5.25196 242.736L6.19823 243.06L5.25196 242.736ZM93.0648 175.012L93.2517 175.994L93.0648 175.012ZM188.4 172.94L188.34 173.938L188.4 172.94ZM336.915 185.688L336.87 186.687L336.915 185.688ZM476.641 186.485L476.692 187.484L476.641 186.485ZM572.87 169.594L572.454 168.685L572.87 169.594ZM602.216 117.725L603.125 117.308L602.216 117.725ZM567.061 90.7946L567.465 89.8798L567.061 90.7946ZM509.859 75.7359L510.007 74.7468L509.859 75.7359ZM470.385 69.5212L470.65 68.557L470.385 69.5212ZM443.274 54.3828L442.381 54.8336L443.274 54.3828ZM460.313 0.691258C460.142 0.165955 459.578 -0.121659 459.053 0.0488541L450.492 2.82753C449.967 2.99804 449.68 3.56211 449.85 4.08742C450.021 4.61272 450.585 4.90033 451.11 4.72982L458.719 2.25989L461.189 9.86905C461.36 10.3944 461.924 10.682 462.449 10.5115C462.974 10.3409 463.262 9.77688 463.091 9.25157L460.313 0.691258ZM93.4474 400.641C92.9695 400.365 92.3577 400.528 92.0809 401.006C91.8042 401.484 91.9673 402.096 92.4453 402.372L93.4474 400.641ZM83.7266 397.017C84.1896 397.318 84.809 397.187 85.1102 396.724C85.4114 396.261 85.2803 395.641 84.8174 395.34L83.7266 397.017ZM76.4735 389.599C76.0268 389.274 75.4014 389.373 75.0766 389.819C74.7519 390.266 74.8508 390.892 75.2975 391.216L76.4735 389.599ZM67.179 384.989C67.6085 385.336 68.2381 385.27 68.5854 384.84C68.9327 384.411 68.8661 383.781 68.4366 383.434L67.179 384.989ZM60.7267 376.865C60.3156 376.496 59.6834 376.531 59.3146 376.942C58.9458 377.353 58.98 377.985 59.3911 378.354L60.7267 376.865ZM51.9519 371.33C52.3437 371.719 52.9769 371.717 53.3661 371.325C53.7554 370.933 53.7533 370.3 53.3615 369.911L51.9519 371.33ZM46.3585 362.592C45.9869 362.183 45.3545 362.153 44.9459 362.525C44.5373 362.896 44.5073 363.529 44.8789 363.937L46.3585 362.592ZM38.1889 356.198C38.5395 356.625 39.1696 356.686 39.5964 356.336C40.0232 355.985 40.085 355.355 39.7344 354.928L38.1889 356.198ZM33.5029 346.942C33.1741 346.498 32.5479 346.405 32.1041 346.733C31.6603 347.062 31.567 347.688 31.8958 348.132L33.5029 346.942ZM26.0128 339.762C26.319 340.221 26.9399 340.346 27.3995 340.039C27.8591 339.733 27.9834 339.112 27.6772 338.653L26.0128 339.762ZM22.2707 330.086C21.9875 329.612 21.3736 329.457 20.8994 329.74C20.4252 330.023 20.2703 330.637 20.5534 331.111L22.2707 330.086ZM15.5276 322.202C15.7871 322.69 16.3926 322.875 16.8802 322.615C17.3677 322.356 17.5526 321.75 17.2931 321.262L15.5276 322.202ZM12.7534 312.205C12.518 311.705 11.9222 311.491 11.4226 311.726C10.923 311.962 10.7087 312.557 10.9441 313.057L12.7534 312.205ZM6.81062 303.7C7.02148 304.21 7.60622 304.453 8.11667 304.242C8.62711 304.031 8.86997 303.446 8.65911 302.936L6.81062 303.7ZM5.2757 293.818C5.1168 293.289 4.55921 292.989 4.03028 293.148C3.50134 293.307 3.20137 293.865 3.36026 294.394L5.2757 293.818ZM1.20738 285.039C1.29806 285.584 1.81321 285.952 2.358 285.861C2.90279 285.771 3.27092 285.255 3.18024 284.711L1.20738 285.039ZM2.15172 275.401C2.12013 274.849 1.64753 274.428 1.09615 274.46C0.544771 274.491 0.123402 274.964 0.154997 275.515L2.15172 275.401ZM0.0891347 265.94C0.0653514 266.492 0.493371 266.958 1.04514 266.982C1.59692 267.006 2.0635 266.578 2.08728 266.026L0.0891347 265.94ZM2.96487 256.695C3.04506 256.149 2.66709 255.641 2.12065 255.561C1.57422 255.48 1.06625 255.858 0.986064 256.405L2.96487 256.695ZM2.91 247.01C2.76717 247.544 3.08386 248.092 3.61736 248.235C4.15085 248.378 4.69913 248.061 4.84196 247.527L2.91 247.01ZM7.88361 238.616C8.09627 238.106 7.85547 237.52 7.34578 237.308C6.83608 237.095 6.25049 237.336 6.03782 237.846L7.88361 238.616ZM10.3535 229.096C10.0794 229.575 10.2459 230.186 10.7253 230.46C11.2048 230.734 11.8157 230.568 12.0898 230.089L10.3535 229.096ZM17.2788 222.107C17.6049 221.661 17.5079 221.036 17.0622 220.71C16.6165 220.384 15.9908 220.481 15.6647 220.926L17.2788 222.107ZM21.8081 213.375C21.4388 213.785 21.4723 214.418 21.883 214.787C22.2937 215.156 22.9259 215.123 23.2952 214.712L21.8081 213.375ZM29.9979 207.916C30.4028 207.54 30.4266 206.908 30.051 206.503C29.6754 206.098 29.0427 206.074 28.6378 206.449L29.9979 207.916ZM36.0316 200.144C35.5972 200.485 35.5216 201.114 35.8627 201.548C36.2037 201.982 36.8324 202.058 37.2667 201.717L36.0316 200.144ZM45.0073 196.105C45.4662 195.798 45.5893 195.177 45.2821 194.718C44.9749 194.259 44.3538 194.136 43.8948 194.443L45.0073 196.105ZM52.1522 189.337C51.6724 189.611 51.5054 190.222 51.779 190.701C52.0526 191.181 52.6633 191.348 53.1431 191.074L52.1522 189.337ZM61.6137 186.625C62.1112 186.385 62.3201 185.788 62.0803 185.29C61.8405 184.793 61.2428 184.584 60.7453 184.823L61.6137 186.625ZM69.6257 180.914C69.1129 181.119 68.8632 181.7 69.0681 182.213C69.273 182.726 69.8549 182.976 70.3678 182.771L69.6257 180.914ZM79.3737 179.538C79.8999 179.371 80.1906 178.808 80.0229 178.282C79.8553 177.756 79.2928 177.465 78.7666 177.633L79.3737 179.538ZM88.1298 175.039C87.5922 175.165 87.2587 175.704 87.3849 176.241C87.5111 176.779 88.0493 177.113 88.587 176.986L88.1298 175.039ZM97.9337 175.166C98.4787 175.076 98.848 174.562 98.7585 174.017C98.669 173.472 98.1547 173.102 97.6097 173.192L97.9337 175.166ZM107.123 171.858C106.575 171.923 106.182 172.419 106.247 172.968C106.311 173.516 106.808 173.909 107.356 173.845L107.123 171.858ZM116.833 172.928C117.384 172.885 117.796 172.405 117.753 171.854C117.711 171.303 117.23 170.891 116.68 170.934L116.833 172.928ZM126.258 170.365C125.706 170.388 125.278 170.855 125.301 171.406C125.325 171.958 125.791 172.386 126.343 172.363L126.258 170.365ZM135.871 172.099C136.424 172.091 136.865 171.637 136.858 171.085C136.85 170.533 136.396 170.091 135.844 170.099L135.871 172.099ZM145.429 170.087C144.877 170.081 144.425 170.524 144.419 171.077C144.413 171.629 144.856 172.081 145.409 172.087L145.429 170.087ZM154.949 172.281C155.501 172.297 155.962 171.863 155.978 171.311C155.994 170.759 155.56 170.298 155.008 170.282L154.949 172.281ZM164.577 170.638C164.025 170.613 163.558 171.041 163.534 171.593C163.51 172.145 163.937 172.612 164.489 172.636L164.577 170.638ZM174.029 173.108C174.58 173.138 175.052 172.715 175.081 172.163C175.111 171.612 174.688 171.141 174.137 171.111L174.029 173.108ZM183.689 171.656C183.137 171.624 182.664 172.044 182.631 172.595C182.598 173.147 183.019 173.62 183.57 173.653L183.689 171.656ZM193.648 174.275C194.199 174.312 194.675 173.895 194.712 173.344C194.748 172.792 194.331 172.316 193.78 172.279L193.648 174.275ZM204.412 173.048C203.861 173.005 203.38 173.417 203.338 173.967C203.295 174.518 203.707 174.999 204.257 175.042L204.412 173.048ZM214.861 175.916C215.411 175.964 215.895 175.557 215.943 175.006C215.991 174.456 215.584 173.971 215.034 173.924L214.861 175.916ZM225.646 174.885C225.096 174.833 224.608 175.237 224.556 175.787C224.505 176.337 224.909 176.824 225.459 176.876L225.646 174.885ZM236.053 177.9C236.602 177.955 237.092 177.553 237.146 177.004C237.201 176.454 236.799 175.964 236.25 175.91L236.053 177.9ZM246.848 176.977C246.298 176.921 245.807 177.321 245.751 177.87C245.695 178.42 246.095 178.911 246.645 178.967L246.848 176.977ZM257.236 180.054C257.786 180.111 258.277 179.711 258.334 179.162C258.39 178.612 257.991 178.121 257.441 178.065L257.236 180.054ZM268.033 179.151C267.484 179.095 266.993 179.495 266.937 180.044C266.881 180.594 267.281 181.085 267.831 181.141L268.033 179.151ZM278.429 182.205C278.978 182.259 279.468 181.857 279.522 181.308C279.576 180.758 279.175 180.269 278.625 180.214L278.429 182.205ZM289.22 181.233C288.67 181.182 288.182 181.586 288.131 182.136C288.08 182.686 288.484 183.173 289.034 183.225L289.22 181.233ZM299.646 184.179C300.197 184.226 300.681 183.819 300.729 183.269C300.776 182.718 300.368 182.234 299.818 182.186L299.646 184.179ZM310.422 183.052C309.871 183.009 309.391 183.422 309.348 183.972C309.306 184.523 309.718 185.004 310.269 185.046L310.422 183.052ZM320.902 185.803C321.453 185.839 321.929 185.422 321.965 184.871C322.001 184.32 321.583 183.844 321.032 183.808L320.902 185.803ZM331.649 184.433C331.097 184.404 330.627 184.828 330.598 185.379C330.57 185.931 330.993 186.401 331.545 186.43L331.649 184.433ZM341.859 186.906C342.411 186.93 342.878 186.501 342.901 185.95C342.925 185.398 342.497 184.931 341.945 184.908L341.859 186.906ZM351.918 185.319C351.366 185.297 350.901 185.727 350.879 186.278C350.857 186.83 351.287 187.295 351.839 187.317L351.918 185.319ZM361.821 187.689C362.372 187.709 362.836 187.277 362.855 186.725C362.875 186.173 362.443 185.71 361.891 185.691L361.821 187.689ZM371.865 186.019C371.313 186.002 370.852 186.436 370.835 186.988C370.819 187.54 371.252 188.001 371.804 188.018L371.865 186.019ZM381.79 188.298C382.342 188.312 382.801 187.876 382.815 187.324C382.829 186.771 382.393 186.312 381.841 186.298L381.79 188.298ZM391.817 186.524C391.265 186.513 390.808 186.952 390.797 187.504C390.787 188.056 391.225 188.512 391.778 188.523L391.817 186.524ZM401.767 188.689C402.319 188.696 402.773 188.255 402.78 187.702C402.788 187.15 402.346 186.696 401.794 186.689L401.767 188.689ZM411.771 186.79C411.219 186.786 410.768 187.231 410.764 187.783C410.761 188.335 411.205 188.786 411.758 188.79L411.771 186.79ZM421.749 188.82C422.302 188.82 422.749 188.372 422.749 187.819C422.748 187.267 422.3 186.82 421.748 186.82L421.749 188.82ZM431.724 186.775C431.172 186.779 430.728 187.231 430.733 187.783C430.738 188.335 431.189 188.779 431.742 188.775L431.724 186.775ZM441.733 188.648C442.286 188.639 442.726 188.183 442.716 187.631C442.707 187.079 442.252 186.639 441.7 186.648L441.733 188.648ZM451.673 186.435C451.121 186.449 450.685 186.909 450.699 187.461C450.713 188.013 451.173 188.449 451.725 188.434L451.673 186.435ZM461.714 188.128C462.266 188.109 462.697 187.646 462.678 187.094C462.658 186.542 462.195 186.11 461.643 186.13L461.714 188.128ZM471.609 185.727C471.057 185.752 470.631 186.219 470.656 186.771C470.681 187.323 471.148 187.75 471.7 187.724L471.609 185.727ZM481.6 187.233C482.152 187.205 482.576 186.735 482.547 186.183C482.519 185.632 482.049 185.208 481.497 185.236L481.6 187.233ZM491.308 184.702C490.757 184.734 490.336 185.207 490.368 185.759C490.401 186.31 490.874 186.731 491.425 186.699L491.308 184.702ZM501.251 186.057C501.801 186.017 502.215 185.538 502.175 184.987C502.135 184.436 501.655 184.022 501.105 184.062L501.251 186.057ZM510.88 183.246C510.33 183.299 509.927 183.787 509.979 184.336C510.032 184.886 510.52 185.29 511.069 185.237L510.88 183.246ZM520.872 184.168C521.42 184.1 521.809 183.601 521.741 183.053C521.673 182.504 521.173 182.115 520.625 182.184L520.872 184.168ZM530.322 180.803C529.776 180.891 529.406 181.405 529.494 181.95C529.583 182.495 530.096 182.865 530.641 182.777L530.322 180.803ZM540.353 180.989C540.894 180.877 541.241 180.347 541.129 179.806C541.016 179.266 540.487 178.919 539.946 179.031L540.353 180.989ZM549.464 176.793C548.93 176.934 548.611 177.482 548.752 178.016C548.893 178.55 549.44 178.868 549.974 178.727L549.464 176.793ZM559.458 175.914C559.982 175.74 560.266 175.174 560.093 174.65C559.919 174.126 559.353 173.842 558.829 174.015L559.458 175.914ZM567.98 170.627C567.47 170.837 567.226 171.422 567.436 171.932C567.647 172.443 568.231 172.687 568.742 172.476L567.98 170.627ZM578.279 167.952C578.76 167.681 578.93 167.071 578.658 166.59C578.387 166.109 577.777 165.939 577.296 166.21L578.279 167.952ZM586.33 160.145C585.897 160.487 585.824 161.116 586.166 161.549C586.509 161.982 587.138 162.056 587.571 161.713L586.33 160.145ZM595.739 154.028C596.104 153.613 596.065 152.981 595.651 152.616C595.237 152.251 594.605 152.29 594.239 152.704L595.739 154.028ZM600.405 143.862C600.15 144.352 600.34 144.956 600.83 145.211C601.32 145.466 601.924 145.275 602.179 144.786L600.405 143.862ZM605.719 134.018C605.796 133.471 605.415 132.966 604.868 132.889C604.321 132.813 603.815 133.194 603.739 133.741L605.719 134.018ZM603.115 123.178C603.254 123.713 603.8 124.033 604.335 123.894C604.869 123.755 605.189 123.209 605.05 122.674L603.115 123.178ZM600.21 112.256C599.892 111.804 599.268 111.695 598.817 112.013C598.365 112.33 598.256 112.954 598.573 113.406L600.21 112.256ZM590.994 105.418C591.421 105.768 592.051 105.706 592.402 105.279C592.752 104.852 592.689 104.221 592.262 103.871L590.994 105.418ZM582.784 97.417C582.306 97.1408 581.694 97.3047 581.418 97.783C581.142 98.2613 581.306 98.8729 581.784 99.149L582.784 97.417ZM571.795 94.0274C572.296 94.26 572.891 94.0426 573.123 93.5418C573.356 93.0409 573.139 92.4462 572.638 92.2135L571.795 94.0274ZM562.878 87.9464C562.365 87.7403 561.783 87.9887 561.577 88.5011C561.371 89.0135 561.619 89.596 562.132 89.802L562.878 87.9464ZM552.905 86.4233C553.429 86.5976 553.996 86.3141 554.17 85.7901C554.344 85.266 554.061 84.6999 553.537 84.5255L552.905 86.4233ZM544.023 81.6445C543.491 81.4981 542.94 81.8111 542.794 82.3436C542.647 82.8761 542.96 83.4265 543.493 83.573L544.023 81.6445ZM533.945 81.1814C534.483 81.304 535.019 80.9669 535.142 80.4284C535.264 79.8899 534.927 79.3539 534.389 79.2313L533.945 81.1814ZM524.673 77.2103C524.13 77.1073 523.607 77.4636 523.504 78.0062C523.401 78.5488 523.757 79.0722 524.3 79.1752L524.673 77.2103ZM514.587 77.4796C515.132 77.5672 515.645 77.1962 515.733 76.6509C515.82 76.1057 515.449 75.5926 514.904 75.5049L514.587 77.4796ZM505.036 74.058C504.488 73.987 503.987 74.3735 503.916 74.9212C503.845 75.4689 504.231 75.9704 504.779 76.0414L505.036 74.058ZM494.862 74.8353C495.41 74.9012 495.908 74.5102 495.974 73.9619C496.04 73.4136 495.649 72.9156 495.101 72.8496L494.862 74.8353ZM485.219 71.5415C484.673 71.4589 484.163 71.8347 484.081 72.3808C483.998 72.9269 484.374 73.4365 484.92 73.519L485.219 71.5415ZM475.019 71.7015C475.558 71.8218 476.092 71.4823 476.212 70.9433C476.333 70.4043 475.993 69.8698 475.454 69.7495L475.019 71.7015ZM466.802 67.5011C466.27 67.3525 465.718 67.6632 465.57 68.1952C465.421 68.7271 465.732 69.2787 466.264 69.4273L466.802 67.5011ZM458.565 66.9972C459.084 67.1882 459.659 66.923 459.85 66.4048C460.041 65.8866 459.775 65.3116 459.257 65.1206L458.565 66.9972ZM452.169 61.8533C451.693 61.5737 451.08 61.733 450.8 62.2093C450.52 62.6855 450.68 63.2983 451.156 63.578L452.169 61.8533ZM444.726 58.3461C445.084 58.7669 445.715 58.8181 446.136 58.4605C446.557 58.1028 446.608 57.4717 446.25 57.0509L444.726 58.3461ZM442.433 49.5745C442.277 49.0446 441.722 48.7411 441.192 48.8967C440.662 49.0523 440.358 49.608 440.514 50.138L442.433 49.5745ZM439.569 40.1286C439.519 40.6787 439.925 41.1646 440.475 41.214C441.025 41.2633 441.511 40.8574 441.561 40.3074L439.569 40.1286ZM443.764 31.1227C443.957 30.6053 443.694 30.0292 443.177 29.8359C442.66 29.6426 442.084 29.9054 441.89 30.4227L443.764 31.1227ZM446.083 21.4765C445.817 21.9607 445.994 22.5686 446.479 22.8342C446.963 23.0997 447.571 22.9225 447.836 22.4383L446.083 21.4765ZM452.779 14.105C453.07 13.6358 452.926 13.0193 452.457 12.7279C451.988 12.4365 451.371 12.5806 451.08 13.0498L452.779 14.105ZM456.152 4.76329C455.874 5.2405 456.036 5.85273 456.513 6.13073C456.99 6.40874 457.603 6.24725 457.881 5.77004L456.152 4.76329ZM97.863 403.122C96.3802 402.314 94.9082 401.487 93.4474 400.641L92.4453 402.372C93.9211 403.227 95.4083 404.062 96.9064 404.878L97.863 403.122ZM84.8174 395.34C81.9879 393.499 79.2058 391.585 76.4735 389.599L75.2975 391.216C78.0577 393.223 80.8682 395.157 83.7266 397.017L84.8174 395.34ZM68.4366 383.434C65.8137 381.313 63.2429 379.123 60.7267 376.865L59.3911 378.354C61.9327 380.634 64.5295 382.846 67.179 384.989L68.4366 383.434ZM53.3615 369.911C50.9698 367.535 48.6346 365.094 46.3585 362.592L44.8789 363.937C47.1777 366.465 49.5362 368.93 51.9519 371.33L53.3615 369.911ZM39.7344 354.928C37.5958 352.325 35.5178 349.662 33.5029 346.942L31.8958 348.132C33.9306 350.879 36.0291 353.568 38.1889 356.198L39.7344 354.928ZM27.6772 338.653C25.8101 335.851 24.0071 332.994 22.2707 330.086L20.5534 331.111C22.3068 334.048 24.1274 336.932 26.0128 339.762L27.6772 338.653ZM17.2931 321.262C15.7121 318.292 14.1981 315.272 12.7534 312.205L10.9441 313.057C12.4026 316.154 13.9312 319.202 15.5276 322.202L17.2931 321.262ZM8.65911 302.936C8.01555 301.378 7.38942 299.809 6.78098 298.23L4.91464 298.948C5.52885 300.543 6.16093 302.127 6.81062 303.7L8.65911 302.936ZM6.78098 298.23C6.23153 296.803 5.72984 295.33 5.2757 293.818L3.36026 294.394C3.82815 295.951 4.34604 297.472 4.91464 298.948L6.78098 298.23ZM3.18024 284.711C2.67425 281.671 2.33223 278.551 2.15172 275.401L0.154997 275.515C0.339416 278.734 0.689055 281.925 1.20738 285.039L3.18024 284.711ZM2.08728 266.026C2.22301 262.877 2.5166 259.75 2.96487 256.695L0.986064 256.405C0.527609 259.529 0.227739 262.724 0.0891347 265.94L2.08728 266.026ZM4.84196 247.527C5.25107 245.999 5.70337 244.508 6.19823 243.06L4.3057 242.413C3.79554 243.906 3.33022 245.441 2.91 247.01L4.84196 247.527ZM6.19823 243.06C6.71131 241.558 7.27395 240.077 7.88361 238.616L6.03782 237.846C5.41156 239.347 4.83327 240.869 4.3057 242.413L6.19823 243.06ZM12.0898 230.089C13.6595 227.343 15.3958 224.681 17.2788 222.107L15.6647 220.926C13.7397 223.557 11.9621 226.282 10.3535 229.096L12.0898 230.089ZM23.2952 214.712C25.4137 212.356 27.6543 210.09 29.9979 207.916L28.6378 206.449C26.2521 208.662 23.9688 210.972 21.8081 213.375L23.2952 214.712ZM37.2667 201.717C39.7717 199.75 42.3582 197.878 45.0073 196.105L43.8948 194.443C41.2052 196.243 38.5777 198.145 36.0316 200.144L37.2667 201.717ZM53.1431 191.074C55.9292 189.485 58.7593 188.001 61.6137 186.625L60.7453 184.823C57.85 186.219 54.979 187.725 52.1522 189.337L53.1431 191.074ZM70.3678 182.771C73.3733 181.57 76.3828 180.491 79.3737 179.538L78.7666 177.633C75.7295 178.6 72.6751 179.695 69.6257 180.914L70.3678 182.771ZM88.587 176.986C90.1553 176.618 91.7113 176.287 93.2517 175.994L92.878 174.029C91.309 174.328 89.7252 174.665 88.1298 175.039L88.587 176.986ZM93.2517 175.994C94.8066 175.699 96.3675 175.423 97.9337 175.166L97.6097 173.192C96.0274 173.452 94.45 173.731 92.878 174.029L93.2517 175.994ZM107.356 173.845C110.5 173.475 113.66 173.173 116.833 172.928L116.68 170.934C113.482 171.18 110.295 171.486 107.123 171.858L107.356 173.845ZM126.343 172.363C129.512 172.228 132.69 172.142 135.871 172.099L135.844 170.099C132.645 170.143 129.448 170.229 126.258 170.365L126.343 172.363ZM145.409 172.087C148.59 172.12 151.772 172.187 154.949 172.281L155.008 170.282C151.819 170.188 148.625 170.12 145.429 170.087L145.409 172.087ZM164.489 172.636C167.679 172.777 170.86 172.937 174.029 173.108L174.137 171.111C170.963 170.939 167.775 170.779 164.577 170.638L164.489 172.636ZM183.57 173.653C185.165 173.748 186.755 173.843 188.34 173.938L188.46 171.942C186.875 171.847 185.284 171.751 183.689 171.656L183.57 173.653ZM188.34 173.938C190.11 174.045 191.879 174.157 193.648 174.275L193.78 172.279C192.008 172.161 190.234 172.049 188.46 171.942L188.34 173.938ZM204.257 175.042C207.793 175.317 211.327 175.609 214.861 175.916L215.034 173.924C211.495 173.616 207.954 173.323 204.412 173.048L204.257 175.042ZM225.459 176.876C228.99 177.208 232.522 177.551 236.053 177.9L236.25 175.91C232.716 175.56 229.181 175.217 225.646 174.885L225.459 176.876ZM246.645 178.967C250.175 179.327 253.705 179.691 257.236 180.054L257.441 178.065C253.911 177.701 250.379 177.337 246.848 176.977L246.645 178.967ZM267.831 181.141C271.362 181.5 274.895 181.856 278.429 182.205L278.625 180.214C275.094 179.866 271.564 179.51 268.033 179.151L267.831 181.141ZM289.034 183.225C292.57 183.555 296.107 183.874 299.646 184.179L299.818 182.186C296.284 181.882 292.752 181.563 289.22 181.233L289.034 183.225ZM310.269 185.046C313.811 185.318 317.355 185.572 320.902 185.803L321.032 183.808C317.494 183.576 313.957 183.323 310.422 183.052L310.269 185.046ZM331.545 186.43C333.319 186.522 335.095 186.608 336.87 186.687L336.96 184.689C335.189 184.61 333.419 184.525 331.649 184.433L331.545 186.43ZM336.87 186.687C338.533 186.762 340.196 186.834 341.859 186.906L341.945 184.908C340.283 184.836 338.621 184.763 336.96 184.689L336.87 186.687ZM351.839 187.317C355.164 187.448 358.492 187.572 361.821 187.689L361.891 185.691C358.565 185.574 355.24 185.449 351.918 185.319L351.839 187.317ZM371.804 188.018C375.132 188.12 378.46 188.213 381.79 188.298L381.841 186.298C378.515 186.214 375.189 186.121 371.865 186.019L371.804 188.018ZM391.778 188.523C395.107 188.589 398.437 188.644 401.767 188.689L401.794 186.689C398.468 186.644 395.142 186.589 391.817 186.524L391.778 188.523ZM411.758 188.79C415.088 188.812 418.419 188.822 421.749 188.82L421.748 186.82C418.423 186.822 415.097 186.812 411.771 186.79L411.758 188.79ZM431.742 188.775C435.073 188.746 438.404 188.704 441.733 188.648L441.7 186.648C438.376 186.704 435.051 186.746 431.724 186.775L431.742 188.775ZM451.725 188.434C455.056 188.348 458.386 188.246 461.714 188.128L461.643 186.13C458.322 186.247 454.998 186.349 451.673 186.435L451.725 188.434ZM471.7 187.724C473.365 187.649 475.029 187.568 476.692 187.484L476.59 185.486C474.93 185.571 473.27 185.651 471.609 185.727L471.7 187.724ZM476.692 187.484C478.321 187.401 479.957 187.318 481.6 187.233L481.497 185.236C479.855 185.321 478.22 185.404 476.59 185.486L476.692 187.484ZM491.425 186.699C494.686 186.507 497.964 186.298 501.251 186.057L501.105 184.062C497.83 184.302 494.562 184.511 491.308 184.702L491.425 186.699ZM511.069 185.237C514.337 184.927 517.607 184.574 520.872 184.168L520.625 182.184C517.382 182.587 514.132 182.937 510.88 183.246L511.069 185.237ZM530.641 182.777C533.894 182.251 537.134 181.659 540.353 180.989L539.946 179.031C536.758 179.694 533.548 180.281 530.322 180.803L530.641 182.777ZM549.974 178.727C553.166 177.884 556.33 176.95 559.458 175.914L558.829 174.015C555.742 175.038 552.618 175.96 549.464 176.793L549.974 178.727ZM568.742 172.476C570.268 171.848 571.783 171.191 573.286 170.503L572.454 168.685C570.975 169.361 569.483 170.008 567.98 170.627L568.742 172.476ZM573.286 170.503C574.916 169.758 576.59 168.905 578.279 167.952L577.296 166.21C575.655 167.136 574.031 167.963 572.454 168.685L573.286 170.503ZM587.571 161.713C590.477 159.415 593.258 156.839 595.739 154.028L594.239 152.704C591.846 155.416 589.155 157.91 586.33 160.145L587.571 161.713ZM602.179 144.786C603.941 141.402 605.191 137.797 605.719 134.018L603.739 133.741C603.246 137.262 602.078 140.65 600.405 143.862L602.179 144.786ZM605.05 122.674C604.589 120.902 603.952 119.112 603.125 117.308L601.307 118.142C602.087 119.843 602.684 121.523 603.115 123.178L605.05 122.674ZM603.125 117.308C602.307 115.525 601.325 113.844 600.21 112.256L598.573 113.406C599.624 114.902 600.544 116.478 601.307 118.142L603.125 117.308ZM592.262 103.871C589.313 101.454 586.083 99.3213 582.784 97.417L581.784 99.149C585.015 101.015 588.151 103.087 590.994 105.418L592.262 103.871ZM572.638 92.2135C570.861 91.3881 569.124 90.6128 567.465 89.8798L566.657 91.7094C568.312 92.4404 570.035 93.2098 571.795 94.0274L572.638 92.2135ZM567.465 89.8798C565.945 89.2087 564.416 88.5647 562.878 87.9464L562.132 89.802C563.65 90.4122 565.158 91.0475 566.657 91.7094L567.465 89.8798ZM553.537 84.5255C550.39 83.4788 547.216 82.5226 544.023 81.6445L543.493 83.573C546.655 84.4424 549.795 85.3885 552.905 86.4233L553.537 84.5255ZM534.389 79.2313C531.16 78.496 527.918 77.8265 524.673 77.2103L524.3 79.1752C527.524 79.7874 530.742 80.452 533.945 81.1814L534.389 79.2313ZM514.904 75.5049C513.271 75.2424 511.638 74.9903 510.007 74.7468L509.712 76.7249C511.336 76.9673 512.961 77.2184 514.587 77.4796L514.904 75.5049ZM510.007 74.7468C508.352 74.4997 506.694 74.2728 505.036 74.058L504.779 76.0414C506.428 76.255 508.072 76.4802 509.712 76.7249L510.007 74.7468ZM495.101 72.8496C491.793 72.4515 488.498 72.0371 485.219 71.5415L484.92 73.519C488.23 74.0193 491.55 74.4366 494.862 74.8353L495.101 72.8496ZM475.454 69.7495C473.845 69.3904 472.243 68.9955 470.65 68.557L470.119 70.4853C471.747 70.9333 473.38 71.336 475.019 71.7015L475.454 69.7495ZM470.65 68.557C469.431 68.2215 468.148 67.8773 466.802 67.5011L466.264 69.4273C467.612 69.804 468.92 70.1551 470.119 70.4853L470.65 68.557ZM459.257 65.1206C456.788 64.2104 454.368 63.1446 452.169 61.8533L451.156 63.578C453.488 64.9473 456.024 66.0604 458.565 66.9972L459.257 65.1206ZM446.25 57.0509C445.437 56.0941 444.735 55.058 444.166 53.9319L442.381 54.8336C443.026 56.1115 443.819 57.2785 444.726 58.3461L446.25 57.0509ZM444.166 53.9319C443.428 52.4707 442.857 51.0181 442.433 49.5745L440.514 50.138C440.973 51.7007 441.589 53.2663 442.381 54.8336L444.166 53.9319ZM441.561 40.3074C441.837 37.23 442.626 34.1678 443.764 31.1227L441.89 30.4227C440.706 33.5923 439.864 36.8323 439.569 40.1286L441.561 40.3074ZM447.836 22.4383C449.381 19.6222 451.077 16.8461 452.779 14.105L451.08 13.0498C449.375 15.795 447.655 18.6099 446.083 21.4765L447.836 22.4383ZM457.881 5.77004C458.726 4.3186 459.526 2.87906 460.252 1.45425L458.471 0.545751C457.766 1.92822 456.985 3.33386 456.152 4.76329L457.881 5.77004Z" fill="#F5851E"/>
</svg>
