<svg width="39" height="38" viewBox="0 0 39 38" fill="none" xmlns="http://www.w3.org/2000/svg">
<path fill-rule="evenodd" clip-rule="evenodd" d="M12.962 0.5C5.80326 0.5 0 5.97478 0 12.7283V24.9565C0 31.71 5.80326 37.1848 12.962 37.1848H25.9239C33.0826 37.1848 38.8859 31.71 38.8859 24.9565V12.7283C38.8859 5.97478 33.0826 0.5 25.9239 0.5H12.962ZM9.72147 12.7283C8.82664 12.7283 8.10123 13.4126 8.10123 14.2568V20.3709C8.10123 22.9036 10.2775 24.9565 12.962 24.9565H22.6834C23.5783 24.9565 24.3037 24.2722 24.3037 23.428V17.3139C24.3037 14.7813 22.1275 12.7283 19.4429 12.7283H9.72147ZM25.9171 16.4497C25.4002 17.007 25.1154 17.7224 25.1154 18.4628V19.2226C25.1154 19.9631 25.4002 20.6784 25.9171 21.2357L28.6566 24.1891C29.3954 24.9858 30.7863 24.4929 30.7863 23.4344V14.2511C30.7863 13.1926 29.3954 12.6996 28.6566 13.4962L25.9171 16.4497Z" fill="white"/>
</svg>
