<svg width="180" height="47" viewBox="0 0 180 47" fill="none" xmlns="http://www.w3.org/2000/svg">
<path d="M0.084511 3.61211L0.0510002 1.6861L1.81278 1.66174C2.78076 1.64717 4.96797 1.59913 6.66119 1.54664C8.35458 1.50015 9.87379 1.45844 10.0189 1.45445C10.6482 1.44918 24.2969 1.24854 28.9142 1.1818C32.1086 1.13612 34.1011 1.0514 34.418 0.952662C34.7635 0.841125 35.025 0.839951 35.3087 0.946215C35.7686 1.11968 36.8827 1.13711 42.4203 1.08113C52.1691 0.981556 54.1449 0.993342 55.6114 1.14517C55.9804 1.18307 56.5216 1.1442 56.7906 1.06478C57.0979 0.972298 57.5138 0.954876 57.845 1.02382C58.1468 1.08157 59.7072 1.12877 61.2951 1.12119C62.883 1.11361 65.4791 1.14439 67.02 1.18612C68.5802 1.22733 70.3631 1.26842 71.0121 1.27462C72.3293 1.28047 76.9314 1.36423 81.0785 1.45447C82.5804 1.48527 84.9537 1.51615 86.3578 1.51362C87.762 1.51709 89.3128 1.56456 89.8084 1.62899C90.3137 1.69315 91.787 1.74275 93.0751 1.7494C94.373 1.75579 96.3784 1.79077 97.5321 1.83714C98.6954 1.88324 100.159 1.9331 100.828 1.95676C101.487 1.98068 102.251 1.9297 102.51 1.84455C102.875 1.73248 103.117 1.73783 103.537 1.88837C103.86 2.00557 104.724 2.08989 105.664 2.09412C109.335 2.12539 110.614 2.15631 112.069 2.24242C112.913 2.29129 113.678 2.30029 113.754 2.25618C113.831 2.21207 114.848 2.25015 116.032 2.33771C118.06 2.49213 122.558 2.66878 124.893 2.69473C127.731 2.72486 130.174 2.81987 130.38 2.90426C130.586 2.99466 135.347 3.23612 137.876 3.28675C140.783 3.34501 142.528 3.42915 142.744 3.52528C142.881 3.58754 143.454 3.64985 144.026 3.67016C147.922 3.7913 149.347 3.85422 149.475 3.90476C149.553 3.93862 150.31 3.98388 151.153 4.00875C151.996 4.03363 153.683 4.12537 154.877 4.20666C156.07 4.29395 157.641 4.36488 158.348 4.36348C159.055 4.36208 159.734 4.40347 159.842 4.45453C160.185 4.60119 163.566 4.67643 163.979 4.55104C164.354 4.43271 165.139 4.47117 168.188 4.77165C170.683 5.01529 173.379 5.15737 175.238 5.14236C176.139 5.13564 177.535 5.19336 178.37 5.26649L179.874 5.39926L179.797 6.4519C179.754 7.02934 179.687 7.73354 179.646 8.01679C179.605 8.29405 179.664 8.68262 179.766 8.86591C179.898 9.10239 179.885 9.31886 179.718 9.59957C179.487 9.99011 179.346 11.8909 179.327 15.103C179.323 16.0215 179.268 16.8274 179.212 16.901C179.109 17.0419 178.915 19.8446 178.949 20.7381C178.958 21.044 178.924 21.9333 178.859 22.7335C178.751 24.1051 178.686 27.3545 178.676 32.3131C178.658 38.3466 178.627 39.3199 178.388 39.4405C178.216 39.5293 178.217 39.5533 178.391 39.5485C178.768 39.5381 178.32 40.1507 177.812 40.3447C177.535 40.4544 177.177 40.4822 176.865 40.4248C176.535 40.3678 176.255 40.3935 176.054 40.5131C175.702 40.7208 173.494 40.7394 173.15 40.5388C173.022 40.4642 172.702 40.431 172.431 40.4625C172.055 40.5088 171.938 40.464 171.932 40.2601C171.928 40.1161 171.847 39.9983 171.741 40.0012C171.634 40.0041 171.559 40.0962 171.562 40.2042C171.569 40.4261 171.08 40.6136 170.805 40.4951C170.56 40.3878 168.295 40.4199 168.298 40.5279C168.299 40.5699 167.565 40.6321 166.665 40.6628C165.437 40.7085 164.961 40.6676 164.754 40.5172C164.596 40.4015 164.514 40.2596 164.57 40.186C164.626 40.1125 164.596 40.0593 164.489 40.0622C164.383 40.0651 164.259 40.1286 164.203 40.2081C164.137 40.288 164.032 40.3209 163.934 40.2816C163.845 40.242 163.721 40.2814 163.665 40.361C163.478 40.6062 162.556 40.5475 162.054 40.2551C161.789 40.1063 161.584 40.0519 161.586 40.1359C161.589 40.2199 161.707 40.3187 161.873 40.3621C162.38 40.4923 162.142 40.6429 161.445 40.626C161.086 40.6179 160.727 40.5977 160.679 40.587C160.473 40.5206 159.49 40.6617 159.396 40.7723C159.34 40.8399 159.077 40.8111 158.823 40.716C158.471 40.5876 158.296 40.5804 158.154 40.6924C158.022 40.8041 157.963 40.7817 157.958 40.6137C157.955 40.4817 157.874 40.3819 157.768 40.3848C157.662 40.3877 157.587 40.4858 157.59 40.6058C157.595 40.7798 157.518 40.7939 157.224 40.6819C157.019 40.6035 156.899 40.4747 156.955 40.3951C157.011 40.3156 156.895 40.3367 156.685 40.4386C156.188 40.6983 156.301 40.9113 156.94 40.9058C157.221 40.9041 157.493 40.9626 157.553 41.033C157.733 41.2262 158.501 41.3432 158.497 41.1752C158.494 41.0972 158.699 41.1276 158.944 41.241C159.523 41.5072 159.542 41.5007 159.512 41.1353C159.495 40.8716 159.59 40.809 160.161 40.7633C160.837 40.7028 160.945 40.7718 160.88 41.2298C160.864 41.3263 161.059 41.393 161.311 41.3861C161.562 41.3792 161.777 41.4513 161.78 41.5473C161.783 41.6672 161.86 41.6591 162.011 41.5109C162.313 41.2145 163.937 41.1159 163.945 41.3918C163.949 41.5418 164.124 41.567 164.654 41.4924C165.089 41.4324 165.525 41.4625 165.789 41.5633C166.024 41.6589 166.706 41.7842 167.308 41.8457C168.036 41.9158 168.387 42.0142 168.362 42.1409C168.337 42.2797 168.511 42.2989 169.129 42.2099C169.958 42.0911 170.047 42.1427 169.983 42.6307C169.966 42.7272 170.084 42.796 170.239 42.7918C170.394 42.7875 170.518 42.7241 170.516 42.6521C170.511 42.4541 171.223 42.3205 171.48 42.4756C171.617 42.5558 171.773 42.5876 171.83 42.538C172.019 42.3887 172.779 42.5599 173.36 42.8862C173.773 43.1149 174.123 43.1714 174.936 43.155C175.575 43.1375 175.979 43.0724 175.977 42.9764C175.971 42.7784 176.571 42.756 176.751 42.9431C176.86 43.0542 176.937 43.0401 177.05 42.9109C177.218 42.6962 177.686 42.8154 177.518 43.0301C177.424 43.1467 177.901 43.2117 178.432 43.1491C178.547 43.1339 178.636 43.5397 178.663 44.1573L178.691 45.189L176.415 45.1674C175.155 45.154 174.05 45.1003 173.942 45.0372C173.676 44.8944 167.531 44.679 164.297 44.7017C163.377 44.709 162.553 44.6716 162.446 44.6265C162.338 44.5754 161.903 44.6294 161.451 44.7438C160.769 44.9187 160.575 44.924 160.115 44.7565C159.743 44.6166 158.958 44.5722 157.486 44.5886C155.27 44.6194 148.508 44.5289 147.596 44.4639C147.285 44.4424 145.823 44.4226 144.321 44.4158C142.82 44.4149 140.825 44.3977 139.866 44.388C137.851 44.3593 136.03 44.3552 131.063 44.3776C129.059 44.3846 126.541 44.3817 125.437 44.364C124.342 44.346 122.124 44.3468 120.537 44.3664C116.268 44.4176 111 44.4482 107.291 44.4479C105.49 44.4494 103.612 44.4469 103.118 44.4425C102.614 44.4443 102.044 44.4899 101.833 44.5558C101.631 44.6213 101.05 44.6253 100.565 44.5666C100.069 44.5082 97.27 44.495 94.3081 44.5403C91.3557 44.5853 87.2418 44.6442 85.141 44.6659C83.0403 44.6935 78.7615 44.745 75.6155 44.7893C72.4695 44.8337 68.0649 44.8886 65.819 44.9142C60.0106 44.9836 43.1494 45.2725 42.3953 45.3172C41.0901 45.3951 39.1833 45.4294 37.6817 45.4046C36.0153 45.3783 20.5869 45.6518 9.09943 45.9132C5.20899 46.002 1.97654 46.0727 1.90848 46.0626C1.48123 46.0203 0.473271 23.0628 0.084511 3.61211ZM178.733 5.79678C178.663 5.72066 178.584 5.6628 178.545 5.66386C178.506 5.66493 178.431 5.72704 178.365 5.80687C178.309 5.88045 178.398 5.94404 178.553 5.93979C178.708 5.93554 178.793 5.86717 178.733 5.79678ZM175.151 6.20126C175.206 6.09769 175.193 5.97799 175.124 5.93186C175.065 5.88547 175.019 5.97677 175.033 6.12047C175.047 6.27616 175.096 6.31082 175.151 6.20126ZM30.2273 16.207C30.2252 16.1291 30.0977 16.0725 29.9429 16.0768C29.7881 16.081 29.7123 16.1431 29.7725 16.2195C29.8424 16.2956 29.9601 16.3524 30.0569 16.3498C30.1537 16.3471 30.2294 16.285 30.2273 16.207ZM83.7403 28.5685C83.4528 28.3243 83.3952 28.3439 83.5199 28.6526C83.5822 28.807 83.7007 28.8878 83.7963 28.8431C83.9014 28.7922 83.8791 28.6848 83.7403 28.5685ZM87.5243 29.8933C87.5717 29.856 87.4817 29.7504 87.3242 29.6587C87.1471 29.5555 87.0403 29.5464 87.0428 29.6364C87.0474 29.8044 87.3916 29.999 87.5148 29.8996L87.5243 29.8933ZM84.3277 30.2092C84.375 30.1719 84.2645 30.0249 84.087 29.9097C83.7713 29.6962 83.7715 29.7022 83.9922 29.9843C84.1226 30.1488 84.2707 30.2528 84.3277 30.2092ZM82.555 30.8942C82.5532 30.8282 82.4347 30.7474 82.2689 30.7039C82.1129 30.6662 81.9876 30.6877 81.9894 30.7536C81.9913 30.8196 82.1097 30.9004 82.2755 30.9439C82.4315 30.9816 82.5569 30.9662 82.555 30.8942ZM92.0606 30.7533C91.9105 30.5773 91.805 30.6162 91.8115 30.8501C91.8148 30.9701 91.8936 31.022 91.9988 30.9711C92.1039 30.9202 92.1303 30.8234 92.0702 30.753L92.0606 30.7533ZM170.43 28.9558C170.369 28.8374 170.251 28.7506 170.163 28.753C170.076 28.7554 170.059 28.8459 170.121 28.9643C170.182 29.0827 170.301 29.1695 170.388 29.1671C170.475 29.1647 170.492 29.0742 170.43 28.9558ZM5.70538 42.5667C5.82788 42.4433 5.88347 42.3517 5.82541 42.3533C5.76735 42.3549 5.6724 42.4235 5.61648 42.5031C5.56056 42.5827 5.43559 42.6161 5.33767 42.5768C5.24943 42.5372 5.17284 42.5693 5.17498 42.6473C5.18058 42.8512 5.46021 42.8075 5.70538 42.5667ZM159.237 39.9363C159.233 39.7683 158.939 39.6503 158.797 39.7623C158.598 39.9178 158.689 40.0774 158.96 40.0699C159.115 40.0657 159.239 40.0023 159.237 39.9303L159.237 39.9363ZM177.292 43.6066C177.45 43.3801 177.438 43.3024 177.234 43.254C176.873 43.1619 176.705 43.3946 176.926 43.6767C177.076 43.8706 177.125 43.8633 177.292 43.6066Z" fill="#F41E92"/>
</svg>
