<svg width="220" height="129" viewBox="0 0 220 129" fill="none" xmlns="http://www.w3.org/2000/svg">
<rect x="1.28613" y="0.838867" width="217.429" height="127" rx="11.5" fill="white"/>
<path d="M23.5873 22.7025C23.5276 22.1987 23.2857 21.8076 22.8614 21.5292C22.4372 21.2508 21.9168 21.1116 21.3003 21.1116C20.8496 21.1116 20.4552 21.1845 20.1171 21.3303C19.7823 21.4762 19.5205 21.6767 19.3316 21.9319C19.146 22.1871 19.0532 22.4771 19.0532 22.8019C19.0532 23.0737 19.1178 23.3074 19.2471 23.5029C19.3796 23.6952 19.5487 23.8559 19.7542 23.9852C19.9597 24.1111 20.1751 24.2155 20.4005 24.2984C20.6259 24.3779 20.833 24.4426 21.0219 24.4923L22.056 24.7707C22.3212 24.8403 22.6162 24.9364 22.941 25.059C23.2691 25.1817 23.5823 25.349 23.8806 25.5612C24.1822 25.77 24.4308 26.0384 24.6263 26.3666C24.8219 26.6947 24.9197 27.0974 24.9197 27.5747C24.9197 28.1249 24.7755 28.622 24.4871 29.0661C24.2021 29.5103 23.7845 29.8633 23.2343 30.1251C22.6874 30.3869 22.0229 30.5178 21.2407 30.5178C20.5115 30.5178 19.8801 30.4002 19.3465 30.1649C18.8162 29.9295 18.3986 29.6014 18.0937 29.1805C17.7921 28.7596 17.6214 28.2707 17.5816 27.7139H18.8543C18.8875 28.0983 19.0167 28.4165 19.2421 28.6684C19.4708 28.917 19.7591 29.1026 20.1072 29.2252C20.4585 29.3445 20.8363 29.4042 21.2407 29.4042C21.7113 29.4042 22.1339 29.328 22.5084 29.1755C22.883 29.0197 23.1796 28.8043 23.3983 28.5292C23.6171 28.2508 23.7265 27.926 23.7265 27.5548C23.7265 27.2167 23.632 26.9416 23.4431 26.7295C23.2542 26.5174 23.0056 26.345 22.6974 26.2124C22.3891 26.0799 22.056 25.9639 21.6981 25.8644L20.4452 25.5065C19.6498 25.2778 19.02 24.9513 18.556 24.5271C18.092 24.1028 17.86 23.5477 17.86 22.8616C17.86 22.2915 18.0141 21.7944 18.3224 21.3701C18.6339 20.9426 19.0515 20.6111 19.5752 20.3758C20.1022 20.1372 20.6905 20.0178 21.3401 20.0178C21.9964 20.0178 22.5797 20.1355 23.0901 20.3708C23.6005 20.6028 24.0049 20.921 24.3032 21.3254C24.6048 21.7297 24.7639 22.1888 24.7805 22.7025H23.5873ZM29.89 30.498C29.2006 30.498 28.5957 30.3339 28.0754 30.0058C27.5583 29.6776 27.154 29.2186 26.8623 28.6286C26.574 28.0387 26.4298 27.3493 26.4298 26.5605C26.4298 25.765 26.574 25.0706 26.8623 24.4774C27.154 23.8841 27.5583 23.4234 28.0754 23.0953C28.5957 22.7671 29.2006 22.6031 29.89 22.6031C30.5794 22.6031 31.1826 22.7671 31.6997 23.0953C32.22 23.4234 32.6244 23.8841 32.9127 24.4774C33.2044 25.0706 33.3502 25.765 33.3502 26.5605C33.3502 27.3493 33.2044 28.0387 32.9127 28.6286C32.6244 29.2186 32.22 29.6776 31.6997 30.0058C31.1826 30.3339 30.5794 30.498 29.89 30.498ZM29.89 29.444C30.4137 29.444 30.8445 29.3097 31.1826 29.0413C31.5207 28.7728 31.7709 28.4198 31.9333 27.9823C32.0957 27.5448 32.1769 27.0709 32.1769 26.5605C32.1769 26.05 32.0957 25.5744 31.9333 25.1336C31.7709 24.6928 31.5207 24.3365 31.1826 24.0647C30.8445 23.7929 30.4137 23.657 29.89 23.657C29.3663 23.657 28.9355 23.7929 28.5974 24.0647C28.2593 24.3365 28.0091 24.6928 27.8467 25.1336C27.6843 25.5744 27.6031 26.05 27.6031 26.5605C27.6031 27.0709 27.6843 27.5448 27.8467 27.9823C28.0091 28.4198 28.2593 28.7728 28.5974 29.0413C28.9355 29.3097 29.3663 29.444 29.89 29.444ZM27.3247 21.748L29.3531 19.9383H30.4468L32.4752 21.748H31.0434L29.9099 20.694L28.7764 21.748H27.3247ZM31.9383 20.5349L32.9127 18.7451H34.3644L32.9724 20.5349H31.9383ZM40.252 20.157V30.3389H39.0787V20.157H40.252ZM45.5033 30.498C44.8139 30.498 44.209 30.3339 43.6887 30.0058C43.1716 29.6776 42.7673 29.2186 42.4756 28.6286C42.1872 28.0387 42.0431 27.3493 42.0431 26.5605C42.0431 25.765 42.1872 25.0706 42.4756 24.4774C42.7673 23.8841 43.1716 23.4234 43.6887 23.0953C44.209 22.7671 44.8139 22.6031 45.5033 22.6031C46.1927 22.6031 46.7959 22.7671 47.3129 23.0953C47.8333 23.4234 48.2377 23.8841 48.526 24.4774C48.8177 25.0706 48.9635 25.765 48.9635 26.5605C48.9635 27.3493 48.8177 28.0387 48.526 28.6286C48.2377 29.2186 47.8333 29.6776 47.3129 30.0058C46.7959 30.3339 46.1927 30.498 45.5033 30.498ZM45.5033 29.444C46.027 29.444 46.4578 29.3097 46.7959 29.0413C47.134 28.7728 47.3842 28.4198 47.5466 27.9823C47.709 27.5448 47.7902 27.0709 47.7902 26.5605C47.7902 26.05 47.709 25.5744 47.5466 25.1336C47.3842 24.6928 47.134 24.3365 46.7959 24.0647C46.4578 23.7929 46.027 23.657 45.5033 23.657C44.9796 23.657 44.5487 23.7929 44.2107 24.0647C43.8726 24.3365 43.6224 24.6928 43.46 25.1336C43.2976 25.5744 43.2164 26.05 43.2164 26.5605C43.2164 27.0709 43.2976 27.5448 43.46 27.9823C43.6224 28.4198 43.8726 28.7728 44.2107 29.0413C44.5487 29.3097 44.9796 29.444 45.5033 29.444ZM43.972 21.7877L43.0573 21.748C43.0573 21.2409 43.2014 20.8266 43.4898 20.5051C43.7815 20.1802 44.1411 20.0178 44.5686 20.0178C44.7575 20.0178 44.9249 20.051 45.0708 20.1173C45.2166 20.1802 45.3558 20.2532 45.4884 20.336C45.6209 20.4189 45.7568 20.4935 45.896 20.5597C46.0386 20.6227 46.1993 20.6542 46.3783 20.6542C46.5672 20.6542 46.7263 20.5813 46.8556 20.4355C46.9881 20.2863 47.0544 20.1073 47.0544 19.8985L47.9493 19.9781C47.9493 20.4951 47.8035 20.9061 47.5118 21.211C47.2235 21.516 46.8655 21.6684 46.4379 21.6684C46.2093 21.6684 46.0203 21.6369 45.8712 21.574C45.722 21.5077 45.5895 21.4331 45.4735 21.3502C45.3575 21.2674 45.2348 21.1945 45.1056 21.1315C44.9763 21.0652 44.8172 21.032 44.6283 21.032C44.4394 21.032 44.2819 21.1066 44.156 21.2558C44.0334 21.4016 43.972 21.5789 43.972 21.7877ZM50.7545 30.3389V22.7025H51.9278V30.3389H50.7545ZM51.3511 21.4298C51.1224 21.4298 50.9252 21.3519 50.7595 21.1961C50.5971 21.0403 50.5159 20.8531 50.5159 20.6343C50.5159 20.4156 50.5971 20.2283 50.7595 20.0725C50.9252 19.9168 51.1224 19.8389 51.3511 19.8389C51.5798 19.8389 51.7754 19.9168 51.9378 20.0725C52.1035 20.2283 52.1863 20.4156 52.1863 20.6343C52.1863 20.8531 52.1035 21.0403 51.9378 21.1961C51.7754 21.3519 51.5798 21.4298 51.3511 21.4298ZM66.3666 23.3389H65.1336C65.0607 22.9842 64.9331 22.6727 64.7508 22.4042C64.5718 22.1357 64.3531 21.9104 64.0945 21.7281C63.8393 21.5425 63.556 21.4033 63.2444 21.3105C62.9329 21.2177 62.608 21.1713 62.27 21.1713C61.6535 21.1713 61.095 21.327 60.5945 21.6386C60.0974 21.9501 59.7013 22.4092 59.4063 23.0157C59.1147 23.6222 58.9688 24.3663 58.9688 25.248C58.9688 26.1296 59.1147 26.8737 59.4063 27.4802C59.7013 28.0867 60.0974 28.5458 60.5945 28.8573C61.095 29.1689 61.6535 29.3247 62.27 29.3247C62.608 29.3247 62.9329 29.2783 63.2444 29.1855C63.556 29.0927 63.8393 28.9551 64.0945 28.7728C64.3531 28.5872 64.5718 28.3602 64.7508 28.0917C64.9331 27.8199 65.0607 27.5084 65.1336 27.157H66.3666C66.2738 27.6774 66.1047 28.1431 65.8595 28.5541C65.6142 28.9651 65.3093 29.3147 64.9447 29.6031C64.5801 29.8881 64.1708 30.1052 63.7167 30.2544C63.266 30.4035 62.7837 30.4781 62.27 30.4781C61.4016 30.4781 60.6294 30.266 59.9532 29.8417C59.2771 29.4175 58.7451 28.8142 58.3573 28.032C57.9695 27.2499 57.7757 26.3218 57.7757 25.248C57.7757 24.1741 57.9695 23.2461 58.3573 22.4639C58.7451 21.6817 59.2771 21.0785 59.9532 20.6542C60.6294 20.23 61.4016 20.0178 62.27 20.0178C62.7837 20.0178 63.266 20.0924 63.7167 20.2416C64.1708 20.3907 64.5801 20.6095 64.9447 20.8978C65.3093 21.1829 65.6142 21.5309 65.8595 21.9419C66.1047 22.3495 66.2738 22.8152 66.3666 23.3389ZM68.3589 30.3389V20.157H71.7993C72.598 20.157 73.251 20.3012 73.7581 20.5896C74.2685 20.8746 74.6463 21.2607 74.8916 21.748C75.1369 22.2352 75.2595 22.7787 75.2595 23.3786C75.2595 23.9785 75.1369 24.5238 74.8916 25.0143C74.6497 25.5048 74.2751 25.8959 73.768 26.1876C73.2609 26.4759 72.6113 26.6201 71.8192 26.6201H69.3532V25.5264H71.7794C72.3263 25.5264 72.7654 25.4319 73.0969 25.243C73.4283 25.0541 73.6686 24.7989 73.8177 24.4774C73.9702 24.1526 74.0464 23.7863 74.0464 23.3786C74.0464 22.971 73.9702 22.6064 73.8177 22.2849C73.6686 21.9634 73.4266 21.7115 73.0919 21.5292C72.7571 21.3436 72.313 21.2508 71.7595 21.2508H69.5919V30.3389H68.3589ZM83.9275 20.157H85.1604V26.8985C85.1604 27.5945 84.9964 28.216 84.6682 28.7629C84.3434 29.3064 83.8844 29.7356 83.2911 30.0505C82.6978 30.3621 82.0018 30.5178 81.203 30.5178C80.4043 30.5178 79.7082 30.3621 79.115 30.0505C78.5217 29.7356 78.061 29.3064 77.7329 28.7629C77.4081 28.216 77.2456 27.5945 77.2456 26.8985V20.157H78.4786V26.7991C78.4786 27.2963 78.588 27.7387 78.8067 28.1265C79.0255 28.511 79.337 28.8142 79.7414 29.0363C80.1491 29.2551 80.6363 29.3644 81.203 29.3644C81.7698 29.3644 82.257 29.2551 82.6647 29.0363C83.0724 28.8142 83.3839 28.511 83.5993 28.1265C83.8181 27.7387 83.9275 27.2963 83.9275 26.7991V20.157Z" fill="#3A3A3A"/>
<path d="M24.5162 42.6457C25.414 42.6457 26.2776 42.7963 27.1072 43.0974C27.9424 43.3985 28.6867 43.8786 29.3401 44.5377C29.9992 45.1968 30.5191 46.0718 30.8998 47.1627C31.2861 48.248 31.4822 49.5803 31.4878 51.1599C31.4878 52.6428 31.3202 53.9667 30.985 55.1315C30.6555 56.2906 30.181 57.2764 29.5617 58.0889C28.9424 58.9014 28.1952 59.5207 27.3202 59.9468C26.4452 60.3673 25.468 60.5775 24.3884 60.5775C23.2236 60.5775 22.1952 60.3531 21.3032 59.9042C20.4111 59.4497 19.6924 58.8332 19.1469 58.0548C18.6072 57.2707 18.2805 56.39 18.1668 55.4127H21.806C21.9481 56.0491 22.2464 56.5434 22.7009 56.8957C23.1555 57.2423 23.718 57.4156 24.3884 57.4156C25.5248 57.4156 26.3884 56.9213 26.9793 55.9326C27.5702 54.9383 27.8685 53.5775 27.8742 51.8502H27.7549C27.4935 52.3616 27.1412 52.8019 26.6981 53.1713C26.2549 53.5349 25.7464 53.8161 25.1725 54.015C24.6043 54.2139 23.9992 54.3133 23.3572 54.3133C22.3287 54.3133 21.4111 54.0718 20.6043 53.5889C19.7975 53.1059 19.1611 52.4411 18.6952 51.5945C18.2293 50.748 17.9964 49.782 17.9964 48.6968C17.9907 47.5264 18.2606 46.4838 18.806 45.569C19.3515 44.6542 20.1128 43.9383 21.0901 43.4213C22.0731 42.8985 23.2151 42.64 24.5162 42.6457ZM24.5418 45.5434C23.968 45.5434 23.4566 45.6798 23.0077 45.9525C22.5645 46.2252 22.2123 46.5917 21.9509 47.0519C21.6952 47.5122 21.5702 48.0264 21.5759 48.5945C21.5759 49.1684 21.7009 49.6855 21.9509 50.1457C22.2066 50.6002 22.5532 50.9639 22.9907 51.2366C23.4339 51.5036 23.9395 51.6372 24.5077 51.6372C24.9339 51.6372 25.3287 51.5576 25.6924 51.3985C26.056 51.2394 26.3714 51.0207 26.6384 50.7423C26.9111 50.4582 27.1242 50.1315 27.2776 49.7622C27.431 49.3928 27.5077 49.0008 27.5077 48.586C27.502 48.0349 27.3714 47.5292 27.1157 47.069C26.86 46.6088 26.5077 46.2394 26.0589 45.961C25.61 45.6826 25.1043 45.5434 24.5418 45.5434ZM40.7435 60.5775C39.8458 60.5718 38.9793 60.4213 38.1441 60.1258C37.3145 59.8303 36.5702 59.3502 35.9111 58.6855C35.252 58.0207 34.7293 57.14 34.343 56.0434C33.9623 54.9468 33.7719 53.6002 33.7719 52.0036C33.7776 50.5377 33.9452 49.2281 34.2748 48.0747C34.61 46.9156 35.0873 45.9326 35.7066 45.1258C36.3316 44.319 37.0787 43.7053 37.9481 43.2849C38.8174 42.8588 39.7918 42.6457 40.8714 42.6457C42.0361 42.6457 43.0645 42.873 43.9566 43.3275C44.8486 43.7764 45.5645 44.3872 46.1043 45.1599C46.6498 45.9326 46.9793 46.7991 47.093 47.7593H43.4537C43.3117 47.1514 43.0134 46.6741 42.5589 46.3275C42.1043 45.9809 41.5418 45.8076 40.8714 45.8076C39.735 45.8076 38.8714 46.3019 38.2805 47.2906C37.6952 48.2792 37.3969 49.623 37.3856 51.3218H37.5049C37.7662 50.8048 38.1185 50.3644 38.5617 50.0008C39.0106 49.6315 39.5191 49.3502 40.0873 49.157C40.6611 48.9582 41.2662 48.8588 41.9026 48.8588C42.9367 48.8588 43.8572 49.1031 44.664 49.5917C45.4708 50.0747 46.1072 50.7394 46.5731 51.586C47.039 52.4326 47.2719 53.4014 47.2719 54.4923C47.2719 55.6741 46.9964 56.7252 46.4452 57.6457C45.8998 58.5661 45.1356 59.2877 44.1526 59.8105C43.1753 60.3275 42.039 60.5832 40.7435 60.5775ZM40.7265 57.6798C41.2947 57.6798 41.8032 57.5434 42.252 57.2707C42.7009 56.998 43.0532 56.6286 43.3089 56.1627C43.5645 55.6968 43.6924 55.1741 43.6924 54.5945C43.6924 54.015 43.5645 53.4951 43.3089 53.0349C43.0589 52.5747 42.7123 52.2082 42.2691 51.9355C41.8259 51.6627 41.3202 51.5264 40.752 51.5264C40.3259 51.5264 39.931 51.6059 39.5674 51.765C39.2094 51.9241 38.8941 52.1457 38.6214 52.4298C38.3543 52.7139 38.1441 53.0434 37.9907 53.4184C37.8373 53.7877 37.7606 54.1826 37.7606 54.6031C37.7606 55.1656 37.8884 55.6798 38.1441 56.1457C38.4055 56.6116 38.7577 56.9838 39.2009 57.2622C39.6498 57.5406 40.1583 57.6798 40.7265 57.6798ZM61.392 60.5945C60.051 60.5945 58.8976 60.3105 57.9317 59.7423C56.9715 59.1684 56.2329 58.373 55.7158 57.3559C55.2045 56.3389 54.9488 55.1684 54.9488 53.8445C54.9488 52.5036 55.2073 51.3275 55.7243 50.3161C56.2471 49.2991 56.9885 48.5065 57.9488 47.9383C58.909 47.3644 60.051 47.0775 61.3749 47.0775C62.517 47.0775 63.517 47.2849 64.3749 47.6997C65.2329 48.1144 65.9118 48.6968 66.4118 49.4468C66.9118 50.1968 67.1874 51.0775 67.2385 52.0889H63.8124C63.7158 51.4355 63.4601 50.9099 63.0454 50.5122C62.6363 50.1088 62.0993 49.907 61.4346 49.907C60.8721 49.907 60.3806 50.0605 59.9601 50.3673C59.5454 50.6684 59.2215 51.1088 58.9885 51.6883C58.7556 52.2678 58.6391 52.9695 58.6391 53.7934C58.6391 54.6286 58.7528 55.3389 58.98 55.9241C59.213 56.5093 59.5397 56.9553 59.9601 57.2622C60.3806 57.569 60.8721 57.7224 61.4346 57.7224C61.8493 57.7224 62.2215 57.6372 62.551 57.4667C62.8863 57.2963 63.1618 57.0491 63.3778 56.7252C63.5993 56.3957 63.7442 56.0008 63.8124 55.5406H67.2385C67.1817 56.5406 66.909 57.4213 66.4204 58.1826C65.9374 58.9383 65.2698 59.5292 64.4175 59.9553C63.5653 60.3815 62.5567 60.5945 61.392 60.5945ZM75.4779 60.5945C74.154 60.5945 73.0091 60.3133 72.0432 59.7508C71.083 59.1826 70.3415 58.3928 69.8188 57.3815C69.2961 56.3644 69.0347 55.1855 69.0347 53.8445C69.0347 52.4923 69.2961 51.3105 69.8188 50.2991C70.3415 49.282 71.083 48.4923 72.0432 47.9298C73.0091 47.3616 74.154 47.0775 75.4779 47.0775C76.8018 47.0775 77.9438 47.3616 78.904 47.9298C79.8699 48.4923 80.6143 49.282 81.137 50.2991C81.6597 51.3105 81.9211 52.4923 81.9211 53.8445C81.9211 55.1855 81.6597 56.3644 81.137 57.3815C80.6143 58.3928 79.8699 59.1826 78.904 59.7508C77.9438 60.3133 76.8018 60.5945 75.4779 60.5945ZM75.4949 57.782C76.0972 57.782 76.6001 57.6116 77.0035 57.2707C77.4069 56.9241 77.7108 56.4525 77.9154 55.8559C78.1256 55.2593 78.2307 54.5803 78.2307 53.819C78.2307 53.0576 78.1256 52.3786 77.9154 51.782C77.7108 51.1855 77.4069 50.7139 77.0035 50.3673C76.6001 50.0207 76.0972 49.8474 75.4949 49.8474C74.887 49.8474 74.3756 50.0207 73.9608 50.3673C73.5518 50.7139 73.2421 51.1855 73.0319 51.782C72.8273 52.3786 72.7251 53.0576 72.7251 53.819C72.7251 54.5803 72.8273 55.2593 73.0319 55.8559C73.2421 56.4525 73.5518 56.9241 73.9608 57.2707C74.3756 57.6116 74.887 57.782 75.4949 57.782ZM84.2819 60.3389V47.248H87.8018V49.532H87.9381C88.1768 48.7195 88.5773 48.1059 89.1398 47.6911C89.7023 47.2707 90.3501 47.0605 91.083 47.0605C91.2648 47.0605 91.4608 47.0718 91.6711 47.0945C91.8813 47.1173 92.066 47.1485 92.2251 47.1883V50.4099C92.0546 50.3588 91.8188 50.3133 91.5177 50.2735C91.2165 50.2338 90.941 50.2139 90.691 50.2139C90.1569 50.2139 89.6796 50.3303 89.2591 50.5633C88.8444 50.7906 88.5148 51.1088 88.2705 51.5178C88.0319 51.9269 87.9126 52.3985 87.9126 52.9326V60.3389H84.2819ZM99.4587 60.5945C98.1121 60.5945 96.953 60.3218 95.9814 59.7764C95.0155 59.2252 94.2712 58.4468 93.7485 57.4411C93.2258 56.4298 92.9644 55.2338 92.9644 53.8531C92.9644 52.5065 93.2258 51.3247 93.7485 50.3076C94.2712 49.2906 95.007 48.498 95.9559 47.9298C96.9104 47.3616 98.0297 47.0775 99.3138 47.0775C100.177 47.0775 100.981 47.2167 101.726 47.4951C102.476 47.7678 103.129 48.1798 103.686 48.7309C104.248 49.282 104.686 49.9752 104.998 50.8105C105.311 51.64 105.467 52.6116 105.467 53.7252V54.7224H94.4133V52.4724H102.05C102.05 51.9497 101.936 51.4866 101.709 51.0832C101.481 50.6798 101.166 50.3644 100.763 50.1372C100.365 49.9042 99.9019 49.7877 99.3735 49.7877C98.8224 49.7877 98.3337 49.9156 97.9076 50.1713C97.4871 50.4213 97.1576 50.7593 96.9189 51.1855C96.6803 51.6059 96.5582 52.0747 96.5525 52.5917V54.7309C96.5525 55.3786 96.6718 55.9383 96.9104 56.4099C97.1547 56.8815 97.4985 57.2451 97.9417 57.5008C98.3849 57.7565 98.9104 57.8843 99.5184 57.8843C99.9218 57.8843 100.291 57.8275 100.626 57.7139C100.962 57.6002 101.248 57.4298 101.487 57.2025C101.726 56.9752 101.908 56.6968 102.033 56.3673L105.391 56.5889C105.22 57.3957 104.871 58.1002 104.342 58.7025C103.82 59.2991 103.143 59.765 102.314 60.1002C101.49 60.4298 100.538 60.5945 99.4587 60.5945ZM118.729 50.9809L115.405 51.1855C115.348 50.9014 115.226 50.6457 115.038 50.4184C114.851 50.1855 114.604 50.0008 114.297 49.8644C113.996 49.7224 113.635 49.6514 113.214 49.6514C112.652 49.6514 112.177 49.7707 111.791 50.0093C111.405 50.2423 111.212 50.5548 111.212 50.9468C111.212 51.2593 111.337 51.5235 111.587 51.7394C111.837 51.9553 112.266 52.1286 112.873 52.2593L115.243 52.7366C116.516 52.998 117.464 53.4184 118.089 53.998C118.714 54.5775 119.027 55.3389 119.027 56.282C119.027 57.14 118.774 57.8928 118.268 58.5406C117.768 59.1883 117.081 59.694 116.206 60.0576C115.337 60.4156 114.334 60.5945 113.197 60.5945C111.464 60.5945 110.084 60.2338 109.055 59.5122C108.033 58.7849 107.433 57.7963 107.257 56.5463L110.828 56.3588C110.936 56.8872 111.197 57.2906 111.612 57.569C112.027 57.8417 112.558 57.9781 113.206 57.9781C113.842 57.9781 114.354 57.8559 114.74 57.6116C115.132 57.3616 115.331 57.0406 115.337 56.6485C115.331 56.319 115.192 56.0491 114.919 55.8389C114.646 55.623 114.226 55.4582 113.658 55.3445L111.391 54.8928C110.112 54.6372 109.16 54.194 108.535 53.5633C107.916 52.9326 107.606 52.1286 107.606 51.1514C107.606 50.3105 107.834 49.586 108.288 48.9781C108.748 48.3701 109.393 47.9014 110.223 47.5718C111.058 47.2423 112.035 47.0775 113.155 47.0775C114.808 47.0775 116.109 47.4269 117.058 48.1258C118.013 48.8247 118.57 49.7764 118.729 50.9809Z" fill="#7C0FD1"/>
<rect x="17.1076" y="103.66" width="2.57143" height="8.35701" rx="0.321426" fill="#56A6FC" stroke="#2686EC" stroke-width="0.642852"/>
<rect x="24.4357" y="106.232" width="2.57143" height="5.78562" rx="0.321426" fill="#3ED1FF" stroke="#1EC0F2" stroke-width="0.642852"/>
<rect x="31.7648" y="102.375" width="2.57143" height="9.64271" rx="0.321426" fill="#56A6FC" stroke="#2686EC" stroke-width="0.642852"/>
<rect x="39.0929" y="104.946" width="2.57143" height="7.07132" rx="0.321426" fill="#3ED1FF" stroke="#1EC0F2" stroke-width="0.642852"/>
<rect x="46.422" y="99.8029" width="2.57143" height="12.2141" rx="0.321426" fill="#56A6FC" stroke="#2686EC" stroke-width="0.642852"/>
<rect x="53.7501" y="102.375" width="2.57143" height="9.64271" rx="0.321426" fill="#3ED1FF" stroke="#1EC0F2" stroke-width="0.642852"/>
<rect x="61.0792" y="99.1603" width="2.57143" height="12.8569" rx="0.321426" fill="#56A6FC" stroke="#2686EC" stroke-width="0.642852"/>
<rect x="68.4074" y="102.375" width="2.57143" height="9.64271" rx="0.321426" fill="#3ED1FF" stroke="#1EC0F2" stroke-width="0.642852"/>
<rect x="75.7365" y="95.3038" width="2.57143" height="16.714" rx="0.321426" fill="#56A6FC" stroke="#2686EC" stroke-width="0.642852"/>
<rect x="83.0646" y="104.303" width="2.57143" height="7.71416" rx="0.321426" fill="#3ED1FF" stroke="#1EC0F2" stroke-width="0.642852"/>
<rect x="90.3937" y="90.1603" width="2.57143" height="21.8568" rx="0.321426" fill="#56A6FC" stroke="#2686EC" stroke-width="0.642852"/>
<rect x="97.7218" y="98.5177" width="2.57143" height="13.4998" rx="0.321426" fill="#3ED1FF" stroke="#1EC0F2" stroke-width="0.642852"/>
<rect x="105.05" y="98.5177" width="2.57143" height="13.4998" rx="0.321426" fill="#56A6FC" stroke="#2686EC" stroke-width="0.642852"/>
<rect x="112.379" y="95.9464" width="2.57143" height="16.0712" rx="0.321426" fill="#3ED1FF" stroke="#1EC0F2" stroke-width="0.642852"/>
<rect x="119.707" y="90.1603" width="2.57143" height="21.8568" rx="0.321426" fill="#56A6FC" stroke="#2686EC" stroke-width="0.642852"/>
<rect x="127.036" y="95.9464" width="2.57143" height="16.0712" rx="0.321426" fill="#3ED1FF" stroke="#1EC0F2" stroke-width="0.642852"/>
<rect x="134.364" y="92.089" width="2.57143" height="19.9283" rx="0.321426" fill="#56A6FC" stroke="#2686EC" stroke-width="0.642852"/>
<rect x="141.693" y="77.9464" width="2.57143" height="34.0709" rx="0.321426" fill="#3ED1FF" stroke="#1EC0F2" stroke-width="0.642852"/>
<rect x="149.022" y="84.3751" width="2.57143" height="27.6424" rx="0.321426" fill="#56A6FC" stroke="#2686EC" stroke-width="0.642852"/>
<rect x="156.351" y="100.446" width="2.57143" height="11.5712" rx="0.321426" fill="#3ED1FF" stroke="#1EC0F2" stroke-width="0.642852"/>
<rect x="163.679" y="98.5177" width="2.57143" height="13.4998" rx="0.321426" fill="#56A6FC" stroke="#2686EC" stroke-width="0.642852"/>
<rect x="171.008" y="99.8029" width="2.57143" height="12.2141" rx="0.321426" fill="#3ED1FF" stroke="#1EC0F2" stroke-width="0.642852"/>
<rect x="178.336" y="82.4464" width="2.57143" height="29.571" rx="0.321426" fill="#56A6FC" stroke="#2686EC" stroke-width="0.642852"/>
<rect x="185.664" y="79.8751" width="2.57143" height="32.1424" rx="0.321426" fill="#3ED1FF" stroke="#1EC0F2" stroke-width="0.642852"/>
<rect x="192.993" y="90.1603" width="2.57143" height="21.8568" rx="0.321426" fill="#56A6FC" stroke="#2686EC" stroke-width="0.642852"/>
<rect x="200.321" y="85.0177" width="2.57143" height="26.9996" rx="0.321426" fill="#3ED1FF" stroke="#1EC0F2" stroke-width="0.642852"/>
<rect x="1.28613" y="0.838867" width="217.429" height="127" rx="11.5" stroke="#D9D9D9"/>
</svg>
