<svg width="103" height="76" viewBox="0 0 103 76" fill="none" xmlns="http://www.w3.org/2000/svg">
<path d="M7.18931 2.07491C7.23068 1.24751 6.59348 0.543241 5.76608 0.501871C4.93869 0.460502 4.23442 1.0977 4.19305 1.92509L7.18931 2.07491ZM2.30489 25.1622L0.829963 25.4354L2.30489 25.1622ZM22.2163 34.847L22.2931 36.3451L22.2163 34.847ZM94.0121 75.2665C94.7531 75.637 95.6541 75.3366 96.0246 74.5957L102.062 62.5209C102.432 61.7799 102.132 60.8789 101.391 60.5084C100.65 60.138 99.7492 60.4383 99.3787 61.1793L94.0121 71.9124L83.279 66.5458C82.538 66.1753 81.637 66.4757 81.2665 67.2166C80.896 67.9576 81.1964 68.8586 81.9373 69.2291L94.0121 75.2665ZM4.19305 1.92509C4.0065 5.65619 2.85309 9.20026 1.83673 13.1184C0.842661 16.9507 0.0173097 21.047 0.829963 25.4354L3.77981 24.8891C3.09398 21.1856 3.76521 17.632 4.74063 13.8717C5.69376 10.1973 6.98275 6.20614 7.18931 2.07491L4.19305 1.92509ZM0.829963 25.4354C1.37524 28.3799 2.40207 30.6532 3.87432 32.3595C5.35227 34.0723 7.19587 35.1172 9.21047 35.7354C13.1233 36.9361 17.9138 36.5696 22.2931 36.3451L22.1395 33.349C17.5221 33.5858 13.3751 33.8753 10.0905 32.8674C8.50642 32.3813 7.18631 31.6057 6.14568 30.3996C5.09935 29.187 4.25273 27.4429 3.77981 24.8891L0.829963 25.4354ZM22.2931 36.3451C26.2921 36.14 30.1279 35.5204 33.8297 34.8434C37.5599 34.1612 41.1059 33.4311 44.6676 32.9613C51.7276 32.0301 58.5989 32.1627 65.9736 35.85L67.3153 33.1668C59.2038 29.111 51.6589 29.0131 44.2752 29.987C40.6151 30.4698 36.9324 31.2262 33.29 31.8923C29.6191 32.5637 25.9382 33.1542 22.1395 33.349L22.2931 36.3451ZM65.9736 35.85C81.1949 43.4607 88.0358 58.7269 93.2599 74.3992L96.106 73.4505C90.8705 57.7442 83.72 41.3691 67.3153 33.1668L65.9736 35.85Z" fill="#1EC0F2"/>
</svg>
