<svg width="125" height="37" viewBox="0 0 125 37" fill="none" xmlns="http://www.w3.org/2000/svg">
<path d="M121.856 36.2487C122.307 36.9433 123.236 37.1403 123.931 36.6888C124.626 36.2373 124.823 35.3083 124.371 34.6137L121.856 36.2487ZM0.822908 11.2997C0.309416 11.9498 0.420149 12.8931 1.07024 13.4066L11.6641 21.7744C12.3142 22.2879 13.2574 22.1772 13.7709 21.5271C14.2844 20.877 14.1737 19.9337 13.5236 19.4203L4.10685 11.9822L11.5449 2.56543C12.0584 1.91534 11.9477 0.97207 11.2976 0.458577C10.6475 -0.0549155 9.70425 0.0558174 9.19076 0.705908L0.822908 11.2997ZM124.371 34.6137C111.263 14.4482 89.7861 7.45381 67.1636 5.98751C44.5791 4.52367 20.4653 8.55148 1.82511 10.7397L2.17489 13.7193C21.0342 11.5053 44.7405 7.54043 66.9696 8.98123C89.1607 10.4196 109.491 17.2271 121.856 36.2487L124.371 34.6137Z" fill="#F41E92"/>
</svg>
