<svg width="2051" height="268" viewBox="0 0 2051 268" fill="none" xmlns="http://www.w3.org/2000/svg">
<path d="M4.48633 263.104C123.305 251.523 243.388 234.827 359.627 207.036C399.825 197.426 441.571 186.277 481.486 171.326C500.525 164.194 519.148 156.197 536.986 147.09C543.026 144.007 548.975 140.796 554.82 137.449C565.732 131.2 623.274 92.7446 588.23 80.3894C552.394 67.7555 508.013 68.2144 470.747 69.3497C432.509 70.5145 389.57 74.8177 356.201 95.6466C339.064 106.343 321.779 130.422 333.806 151.218C349.588 178.507 395.879 181.892 422.652 184.337C526.832 193.85 636.185 186.051 739.244 170.072C821.885 157.259 910.737 139.351 986.203 101.104C1011.09 88.4934 1030.22 69.2476 996.36 54.5887C968.445 42.5042 934.937 40.6265 904.944 42.4325C889.397 43.3687 847.981 55.6338 862.601 80.7616C869.1 91.9319 886.624 96.5988 897.479 99.8641C904.583 102.001 911.759 103.8 918.986 105.329C937.728 109.295 956.821 111.453 975.923 113.013C1013.44 116.076 1050.97 117.318 1088.49 117.232C1138.35 117.116 1188.2 114.653 1237.99 111.001M2046.49 4.10352C1798.37 48.8886 1548.01 83.9208 1296.92 106.19C1292.28 106.602 1287.63 107.008 1282.99 107.406M1282.99 107.406C1267.99 108.691 1252.99 109.9 1237.99 111.001M1282.99 107.406L1237.99 111.001" stroke="#FF9AD1" stroke-width="8" stroke-linecap="round"/>
</svg>
